<svg xmlns="http://www.w3.org/2000/svg"
     viewBox="0 0 995.5 938.6">
    <path class="service-circle-fg" d="M74.8,583.3c-1.6,0.2-3.3,0.4-5,0.5c14.5,74.7,48.2,144.3,97.8,202
	c1.1-1.2,2.3-2.4,3.5-3.6C122.3,725.4,89.1,656.9,74.8,583.3z M726.2,869.7c-140.4,86.1-317.5,85.1-456.8-2.7c-1,1.4-2,2.7-3,4
	c141.3,89.2,321,90.1,463.2,2.5C728.3,872.3,727.2,871,726.2,869.7z M131.2,263.7c-36.8,57.2-59.7,122.3-66.9,190h0.9
	c1.4,0,2.8,0.1,4.1,0.1c7.1-66.6,29.7-130.6,65.8-186.9C133.8,265.9,132.5,264.8,131.2,263.7L131.2,263.7z M435.2,67.1
	c-80.4,11.9-156,46.1-218,98.7c1.3,1.1,2.5,2.3,3.6,3.5C282,117.6,356.3,84,435.5,72.1C435.4,70.4,435.3,68.8,435.2,67.1L435.2,67.1
	z M780.6,164.1c-61.4-51.4-135.8-85-215.1-96.9c0,1.7-0.2,3.3-0.4,5c78.1,11.8,151.4,44.8,212,95.5
	C778.2,166.5,779.4,165.3,780.6,164.1L780.6,164.1z M929.6,446.5h0.7c1.5,0,2.9,0.1,4.3,0.2c-8.1-66.1-31.2-129.4-67.5-185.2
	c-1.3,1.1-2.6,2.1-4,3C898.8,319.3,921.5,381.6,929.6,446.5L929.6,446.5z M930.3,577c-1.4,0-2.8-0.1-4.2-0.2
	c-13.8,77.4-48.6,149.6-100.5,208.7c1.1,1.3,2.2,2.6,3.2,3.9c53-60.1,88.4-133.6,102.3-212.5L930.3,577z"/>
    <g id="si-1">
        <circle class="service-bg" cx="824.7" cy="210.9" r="65.2"/>
        <path class="service-fg" d="M824.7,153c-32,0-57.9,25.9-57.9,57.9s25.9,57.9,57.9,57.9s57.9-25.9,57.9-57.9l0,0l0,0
		C882.6,178.9,856.7,153,824.7,153z M824.7,262.1c-28.3,0-51.2-22.9-51.2-51.2s22.9-51.2,51.2-51.2s51.2,22.9,51.2,51.2
		S853,262.1,824.7,262.1L824.7,262.1L824.7,262.1z M811.6,228c3.6-0.5,7.2-0.7,10.8-0.8v8.2c1-0.8,3-1.6,4-2.5v-5.6
		c1,0,3.2,0.1,4.8,0.2c0.8-1.1,1.5-2.2,2.1-3.3c-2.2-0.2-4.9-0.3-6.9-0.3v-26.1c3,0,6.5-0.3,9.6-0.6l4.4-5.2c-1.2-3.5-3-6.8-5.3-9.7
		c3.3,1.2,6.3,3,9,5.3l2.7-3.3c-6.2-5.3-14.2-8.3-22.4-8.3l0,0c-19.2,0-34.7,15.6-34.7,34.8c0,12.5,6.7,24,17.6,30.2l6.2-1.7
		c-4.8-1.8-9-4.9-12.3-8.8c2.3-0.8,4.6-1.5,7-1.9c1.2,3.8,3,7.4,5.5,10.6l1.3-0.3c0.8-0.2,1.6-0.5,2.4-0.8
		C814.7,235.1,812.8,231.7,811.6,228L811.6,228z M826.4,180.3c0.2,0,0.5,0,0.7,0.1c4.1,1.5,7.8,6.3,10.2,13.1
		c-3.6,0.5-7.2,0.7-10.9,0.8V180.3z M822.4,207v1.8H809c0.1-4.1,0.6-8.1,1.6-12.1c3.9,0.6,7.9,0.9,11.8,1V207z M821.7,180.3
		c0.3,0,0.7,0,0.7-0.1v13.9c-3.6,0-7.3-0.3-10.9-0.8C813.9,186.7,817.6,181.8,821.7,180.3z M799,227.8c-2.9-4.5-4.7-9.7-5.1-15h11.6
		c0.1,4.3,0.7,8.5,1.7,12.6C804.4,225.9,801.7,226.7,799,227.8L799,227.8z M805.5,208.8h-11.6c0.4-5.4,2.1-10.6,5.1-15.1
		c2.6,1.1,5.4,1.8,8.2,2.3C806.2,200.2,805.6,204.5,805.5,208.8L805.5,208.8z M801.2,190.9c3.4-4,7.7-7,12.6-8.8
		c-2.5,3.2-4.4,6.8-5.6,10.7C805.8,192.4,803.4,191.8,801.2,190.9L801.2,190.9z M809,212.8h13.4v10.9c-4,0.1-7.9,0.5-11.8,1.1
		C809.6,220.8,809.1,216.8,809,212.8L809,212.8z M867.2,210.8H857c-0.1,18-14.8,32.6-32.8,32.5c-2.8,0-5.6-0.4-8.3-1.1
		c14.2-3.9,24-16.7,24-31.4h-10.2l18.7-22L867.2,210.8z"/>
    </g>
    <g id="si-2">

        <ellipse class="service-bg" transform="matrix(0.9999 -1.518355e-02 1.518355e-02 0.9999 -3.2358 2.6497)" cx="172.9" cy="214.4" rx="65.2" ry="65.2"/>
        <path class="service-fg"  d="M172,158.2c-31,0.5-55.8,26-55.3,57s26,55.8,57,55.3s55.8-26,55.3-57l0,0
		C228.5,182.5,203,157.7,172,158.2L172,158.2z M173.6,264c-27.4,0.4-50-21.5-50.4-48.9s21.5-50,48.9-50.4s50,21.5,50.4,48.9l0,0
		C222.9,241,201,263.6,173.6,264L173.6,264L173.6,264L173.6,264z M168.6,236.3l-9.8-12.8c-0.9-0.9-1-2.4,0-3.4s2.4-1,3.4,0
		c0.1,0.1,0.2,0.3,0.3,0.4l0.1,0.2l6.9,9l28.8-22.5c1.1-0.7,2.6-0.5,3.3,0.6c0.7,1,0.5,2.4-0.4,3.2L168.6,236.3z M180.3,206
		l-15.9,0.2v-3l15.9-0.2V206z M180.4,214.2l-22.1,0.3v-3l22.1-0.3V214.2z M186.6,232.6l4.5-4.6l0.2,16.3l-43.1,0.7l-0.7-47.5
		l14-13.2l28.9-0.4l0.3,22.6l-4.5,4.5l-0.3-23.1l-22.3,0.3l0,0l0.2,11.9l-12.5,0.2l0.6,40.3l34.8-0.5L186.6,232.6z"/>
    </g>
    <g id="si-3">
        <circle class="service-bg" cx="215.9" cy="829.9" r="65.2"/>
        <path class="service-fg" d="M215.9,775c-30.3,0-54.9,24.6-54.9,54.9s24.6,54.9,54.9,54.9s54.9-24.6,54.9-54.9
		S246.2,775,215.9,775L215.9,775L215.9,775z M215.9,878.4c-26.8,0-48.5-21.7-48.5-48.5s21.7-48.5,48.5-48.5s48.5,21.7,48.5,48.5
		S242.7,878.4,215.9,878.4L215.9,878.4z M210.5,833.5l-6.5,4.9l-6.3-8.3l-8.8-11.6l6.5-4.9l2.3,3.1L210.5,833.5z M192.8,810l1.2,1.6
		l-6.5,4.9l-1.3-1.7c-0.7-1-0.5-2.3,0.4-3.1l3-2.2C190.7,808.9,192.1,809.1,192.8,810L192.8,810z M234,803.8v-2
		c0-0.8-0.7-1.5-1.5-1.5s-1.5,0.7-1.5,1.5v2.2h-1v-2.2c0-0.8-0.7-1.5-1.5-1.5s-1.5,0.7-1.5,1.5v2.2h-2v-2.2c0-0.8-0.2-1.5-1-1.5
		s-1,0.7-1,1.5v2.2h-2v-2.2c0-0.8-0.7-1.5-1.5-1.5s-1.5,0.7-1.5,1.5v2.2h-1v-2.2c0-0.8-0.7-1.5-1.5-1.5s-1.5,0.7-1.5,1.5v2.2h-2
		v-2.2c0-0.8-0.7-1.5-1.5-1.5s-1.5,0.7-1.5,1.5v2.2h-1v-2.2c0-0.8-0.7-1.5-1.5-1.5s-1.5,0.7-1.5,1.5v2.2h-2v-2.2
		c0-0.8-0.2-1.5-1-1.5s-1,0.7-1,1.5v2c-1.5-0.1-2.9,1.1-3,2.6c0,0.1,0,0.2,0,0.3v7.4l14.7,19.6l-8.7,6.7l-6-8v22.8
		c-0.1,1.4,1,2.6,2.4,2.7l0,0h33.8c1.5,0.1,2.8-1.1,2.8-2.6l0,0c0-0.1,0-0.1,0-0.2v-48.5c0.1-1.5-1.2-2.9-2.7-2.9L234,803.8
		L234,803.8z M204.3,841l8.7-6.5l0.8,9.7L204.3,841z"/>
    </g>
    <g id="si-4">
        <circle class="service-bg" cx="65.8" cy="518.6" r="65.2"/>
        <path class="service-fg"  d="M62.9,536c-3,5.1-9.8,8.7-17.6,8.7s-14.6-3.5-17.6-8.6l0,0c0.3-2.7,0.7-6.8,1.1-7.4
		c0.2-0.5,0.6-0.9,1.1-1c3.2-1.1,9-2.4,9-2.4l0,0c0.1-0.1,0.3-0.2,0.5-0.3v-0.2c1.1,1.9,3.6,2.6,6,2.6c1.3,0,2.6-0.2,3.8-0.7
		c1-0.3,1.8-1,2.2-2c0.2,0.1,0.3,0.1,0.5,0.1c0,0,5.7,1.5,8.9,2.6c0.5,0.2,0.9,0.6,1.1,1.1C62.2,529.2,62.7,533.3,62.9,536L62.9,536
		z M37.1,509.4c0.4-0.6,0.8-1.2,1.2-1.7c-0.5,1.7-0.6,3.4-0.3,5.1c-0.3,0.3-0.5,0.6-0.5,1c-0.3,1.4,0.3,2.9,1.4,3.8
		c0.2,1.3,0.6,2.5,1.2,3.6c0,0.1,0.1,0.2,0.2,0.2c0.5,0.7,0.5,1.7,0.1,2.4c-0.1,0.2-0.3,0.4-0.4,0.5l0,0c0.8,1.5,3.1,2.2,5.3,2.2
		c1.2,0,2.4-0.2,3.5-0.6c0.8-0.2,1.4-0.8,1.7-1.5c0,0,0-0.1,0.1-0.1c-0.2-0.2-0.3-0.3-0.4-0.5c-0.4-0.7-0.4-1.6,0-2.3
		c0.1-0.1,0.2-0.3,0.3-0.4c0.6-1.1,1-2.3,1.2-3.6c1.2-0.9,1.7-2.4,1.4-3.8c0-0.2,0-0.3,0-0.5c0.1-0.8,0.2-1.6,0.2-2.4l0,0
		c0-1.3-0.4-5-2.1-6.6l-0.4,0.8c-0.6-0.7-1.4-1.2-2.3-1.6l-0.2,0.8c-0.8-0.6-1.7-1.1-2.6-1.3l-0.1,0.6c-1-0.4-2.1-0.6-3.2-0.6
		l0.3,0.7c-1.2-0.5-2.5-0.6-3.7-0.1l1.8,1c-1.4-0.3-2.8,0.3-3.6,1.5l1.5-0.2c-1.4,0.6-2.1,2.2-1.5,3.7L37.1,509.4z M41,524.1
		c0.2-0.5,0.3-1,0.2-1.6c0.5,0.5,0.9,1,1.5,1.4c0.7,0.6,1.6,0.8,2.6,0.7c1.7-0.1,3.2-1.1,4-2.5l0,0c-0.1,0.6,0,1.2,0.2,1.7
		C49,526.1,42.5,526.9,41,524.1L41,524.1z M38.9,513.2v0.4c0,0.1,0,0.2,0,0.3v0.6c0,0.6,0,1.2,0.1,1.8h0.1c0.5-1,0.6-2.1,0.3-3.1
		l0,0v-2c0.1-0.5,0.1-1,0.3-1.5c0.2-0.4,0.4-0.7,0.7-0.7c1.2,0,3.3,0.9,5,0.9s3.8-0.9,5-0.9c0.9,0,1,1.8,1,3.2
		c-0.1,0.4-0.1,0.8-0.2,1.2c-0.1,1,0,2,0.3,3l0.3-0.1c0-0.5,0.1-1.1,0.1-1.8v-1.4c0.1-0.2,0.3-0.2,0.6-0.2c0.2,0.1,0.2,0.4,0.3,0.9
		c0.1,1.2-0.4,2.4-1.3,3.2l0,0v0.3l0,0c0,1.7-0.7,3.4-1.9,4.6c-2.3,2.3-2.6,2.2-4,2.2s-1.8,0-4-2.2c-1.3-1.2-2-2.9-2-4.6l0,0
		l-0.1-0.1l-0.2-0.2l0,0c-0.9-0.8-1.4-2-1.2-3.2c0.1-0.5,0.3-0.8,0.5-0.9C38.7,513,38.8,513.1,38.9,513.2L38.9,513.2z M70.1,526.8
		c2.7-0.9,7.1-2.1,8-2.3h0.2c0.5-0.1,1-0.4,1.3-0.9c0.3-0.6,0.3-1.4,0-2.1c-0.1-0.1-0.2-0.2-0.3-0.4c-0.6-1-0.9-2.1-1.1-3.2
		c-1.1-0.8-1.6-2.1-1.3-3.5c0-0.2,0.1-0.3,0.2-0.5c-0.1-0.8-0.1-1.7,0-2.5v-0.6c-2.5-0.7-4.9-1.6-4.9-1.6l0,0
		c-0.6,0.1-1.2-0.2-1.5-0.8c-0.4-0.7-0.3-1.6,0.1-2.2c0.1-0.1,0.1-0.1,0.2-0.2c0.6-1,1-2.2,1.2-3.4c1.1-0.9,1.6-2.3,1.4-3.6
		c0-0.2-0.1-0.3-0.2-0.5c0.1-0.9,0.1-1.8,0-2.6c0.1-1.6-0.6-3-1.8-4c-0.3-1.6-2.4-2.8-5.6-2.8c-3.8,0-7.2,2.6-7.3,6.7
		c-0.1,0.9-0.1,1.8,0,2.7c-0.1,0.2-0.1,0.3-0.2,0.5c-0.3,1.4,0.2,2.8,1.4,3.7c0.2,1.2,0.6,2.4,1.2,3.4c0.1,0.1,0.2,0.3,0.3,0.4
		c0.3,0.7,0.3,1.5,0,2.2c-0.3,0.6-0.9,1-1.5,1c0,0-2.3,0.6-4.8,1.3c0,0.6,0,1.2-0.1,1.8c0.1,0.2,0.1,0.3,0.2,0.5
		c0.3,1.4-0.3,2.8-1.3,3.6c-0.2,1.2-0.5,2.4-1.1,3.4c-0.1,0.1-0.2,0.3-0.3,0.4c-0.2,0.4-0.3,0.8-0.2,1.3c0,0.5,0.3,1.1,0.7,1.4
		c0.6,0.3,1.2,0.6,1.9,0.7c1.5,0.4,3,0.8,4.4,1.2c1.1,0.3,2.2,0.7,3.3,1c0.5,0.1,0.9,0.5,1,1c0.1,0.4,0.2,0.7,0.3,1.1
		c0.8,0.1,1.6,0.1,2.4,0.1c1,0,1.9-0.1,2.9-0.2c0-0.2,0.1-0.4,0.2-0.7C69.1,527.3,69.6,526.9,70.1,526.8z M69.7,494
		c2.7,0.5,2.2,3.8,2,4.5c0,0.2,0,0.3-0.1,0.5h-0.1c-1.7-0.3-3.4-0.1-4.9,0.5c-0.4,0-0.7,0-1.1,0c-1.6-0.6-3.3-0.7-4.9-0.5h-0.1v-0.2
		C60.1,494.1,67.2,497,69.7,494z M60.2,502.4L60.2,502.4l-0.1-0.1l-0.2-0.2h0.3c-0.9-0.8-1.4-1.9-1.2-3.1c0.1-0.5,0.2-0.8,0.4-0.8
		s0.3,0.1,0.5,0.2v1.3c0,0.6,0,1.1,0.1,1.7l0.2,0.1c0.1-0.3,0.2-0.5,0.2-0.8c0.1,0.2,0.1,0.3,0.2,0.5c0.3,0.7,1.6,1,2.7,1
		c0.4,0,1.7,0,2-0.6c0.2-0.4,0.3-0.9,0.3-1.4h1c0,0.5,0.1,0.9,0.3,1.4c0.3,0.6,1.6,0.6,2,0.6c1,0,2.3-0.3,2.7-1
		c0.1-0.2,0.2-0.4,0.2-0.6c0.1,0.3,0.2,0.6,0.3,0.9h0.1c0-0.5,0-1.1,0.1-1.7v-0.6c0-0.1,0-0.2,0-0.3v-0.4c0.1-0.2,0.3-0.2,0.5-0.2
		c0.2,0.1,0.4,0.4,0.5,0.8c0.2,1.1-0.2,2.3-1.1,3.1l0,0l-0.5,0.2l-0.4,0.1l0,0c0.1,1.6-0.5,3.3-1.6,4.4c-2.2,2.2-2.3,2.2-3.7,2.2
		s-1.6,0-3.8-2.2C61,505.8,60.3,504.2,60.2,502.4L60.2,502.4z M61.9,508.8c0.3-0.5,0.3-1.1,0.2-1.6l0,0c0.3,0.6,0.8,1.1,1.4,1.5
		c0.7,0.6,1.6,0.9,2.5,0.8c0.9,0.1,1.8-0.1,2.5-0.6c0.5-0.4,1-0.8,1.4-1.3c0,0.5,0,1,0.2,1.5c-0.7,1.2-2.3,1.8-4.1,2.1
		C64.4,510.9,62.9,510.1,61.9,508.8L61.9,508.8z M64.6,520.2c0.2-2,0.3-4.3,0.4-5c0.6,0.3,1.4,0.3,2,0c0,0.7,0.2,3,0.4,5H64.6z
		 M66.9,514.6c-0.6,0.2-1.3,0.2-1.9,0c-0.4-0.7-0.6-1.5-0.6-2.4c0-1,3-1,3,0C67.5,513.1,67.3,513.9,66.9,514.6L66.9,514.6z
		 M93.5,496.2c0,3.6-3.9,6.5-8.6,6.5c-1.5,0-3.1-0.3-4.5-1c-1.8,0.4-3.6-0.1-5-1.2c0.9,0,1.9,0,2.8-0.2c-1.2-1-1.9-2.5-1.9-4.1
		c0-3.6,3.9-6.5,8.6-6.5S93.5,492.6,93.5,496.2z M101.5,529c-0.2-0.5-0.5-0.8-1-1c-3-1-8.1-2.3-8.6-2.5l0,0c-0.6-0.1-1.2-0.4-1.5-1
		c-0.4-0.7-0.3-1.6,0.1-2.3c0.1-0.1,0.1-0.2,0.2-0.2c0.6-1,1-2.2,1.1-3.4c1.1-0.9,1.6-2.3,1.3-3.6c0-0.2-0.1-0.3-0.2-0.5
		c0.1-0.9,0.1-1.8,0-2.6c0.1-1.6-0.6-3-1.8-4c-0.3-1.6-2.4-2.7-5.6-2.7c-3.8,0-7.2,2.6-7.2,6.7c-0.1,0.9-0.1,1.8,0,2.7
		c-0.1,0.2-0.1,0.3-0.2,0.5c-0.3,1.4,0.3,2.8,1.4,3.6c0.2,1.2,0.6,2.3,1.2,3.4c0.1,0.1,0.2,0.3,0.3,0.4c0.3,0.7,0.3,1.5,0,2.2
		c-0.2,0.5-0.7,0.9-1.3,1h-0.2c-1,0.3-5.7,1.5-8.4,2.4c-0.5,0.2-0.8,0.5-1,1c-0.3,0.6-0.8,4.6-1.1,7.2c2.9,4.9,9.3,8.2,16.8,8.2
		s13.9-3.4,16.8-8.2C102.3,533.6,101.8,529.6,101.5,529z M89,523.1v-1.5c0,0,0-2-3.2-2s-3.3,2-3.3,2v1.7c-0.2-0.2-0.3-0.4-0.5-0.6
		c-1.2-1.2-1.8-2.7-1.7-4.4H80l-0.5-0.1h-0.3V518c-0.8-0.8-1.2-2-0.9-3.1c0-0.4,0.3-0.7,0.6-0.8c0.2,0,0.4,0.1,0.6,0.2v0.4
		c0,0.1,0,0.2,0,0.3v0.6c0,0.6,0,1.1,0.1,1.7l0.2,0.1c0.3-0.9,0.4-1.9,0.3-2.8c-0.3-9.6,6.8-1.7,9.2-4.7c2.7,0.5,2.1,3.8,2,4.5
		c-0.3,1-0.2,2.1,0.3,3h0.1c0-0.5,0-1,0.1-1.7v-0.6c0-0.1,0-0.2,0-0.3v-0.4c0.1-0.2,0.3-0.2,0.5-0.2c0.2,0.1,0.4,0.4,0.5,0.8
		c0.2,1.1-0.2,2.3-1.1,3.1l0,0l-0.3,0.2l-0.2,0.1l0,0c0,1.7-0.6,3.3-1.8,4.4L89,523.1z M81.8,523.2L81.8,523.2c0.5,1,1,1,1.4,1.4
		c1.5,0.9,3.4,0.9,4.9,0c0.5-0.4,1-0.8,1.4-1.3c0,0.5,0,1,0.2,1.5c-0.9,2.6-7.4,2.2-8.2,0C81.8,524.2,81.8,523.7,81.8,523.2
		L81.8,523.2z M83.8,520.6c1.2-0.3,2.4-0.3,3.6,0c0.3,0.2,0.7,1.2,0,1.4c-0.4,0.1-0.7,0.1-1.1,0c-0.3-0.1-0.3-0.3-0.7-0.3
		s-0.3,0.2-0.6,0.2c-0.4,0.1-0.8,0.1-1.3,0C83.2,521.8,83.6,520.8,83.8,520.6L83.8,520.6z M105.2,479.6c-21.5-21.6-56.5-21.6-78-0.1
		C5.6,501,5.6,536,27.1,557.5v0.1h0.1c21.5,21.5,56.4,21.5,77.9,0C126.7,536.1,126.7,501.2,105.2,479.6z M66,567.1
		c-26.8,0-48.5-21.7-48.5-48.5c0-26.8,21.7-48.5,48.5-48.5s48.5,21.7,48.5,48.5C114.5,545.4,92.8,567.1,66,567.1z M71,501
		c-0.2,0.4-1.1,0.7-2.2,0.7c-0.9,0-1.4-0.2-1.5-0.4c-0.2-0.5-0.3-1.1-0.2-1.7c1.3-0.4,2.7-0.5,4-0.3C71.2,499.9,71.2,500.5,71,501
		L71,501z M64.7,501.3c-0.1,0.2-0.7,0.4-1.5,0.4c-1.1,0-2-0.3-2.2-0.7c-0.2-0.5-0.3-1.1-0.2-1.6c1.3-0.2,2.7-0.1,4,0.3
		C65,500.3,64.9,500.9,64.7,501.3L64.7,501.3z"/>
    </g>
    <g id="si-5">
        <circle class="service-bg" cx="777" cy="828.9" r="65.2"/>
        <path class="service-fg" d="M794.7,848.9c0,0.5-0.4,0.8-1.1,1.1v-2.1C794.2,848.1,794.7,848.4,794.7,848.9
		L794.7,848.9z M791.2,840.7v1.8c-0.5-0.2-0.8-0.6-0.8-1C790.4,841.2,790.6,840.8,791.2,840.7L791.2,840.7z M776.3,788.5
		c-21.9,0.4-39.5,18.5-39.1,40.4c0.4,21.5,17.6,38.6,39.1,39.1h1.7v-3.6h0.1v-35.2h34.6h3.3c0-0.5-0.1-0.8-0.1-1.3
		C816,805.9,798.1,788.2,776.3,788.5L776.3,788.5z M812.1,826.4H798c0-5.4-0.7-10.7-2-16c3.3-0.7,6.6-1.8,9.8-3
		C809.6,813,811.9,819.6,812.1,826.4L812.1,826.4z M804,805c-2.9,1.1-5.8,1.9-8.8,2.6c-1.7-5.5-4.8-10.5-8.9-14.3
		C793.1,795.4,799.3,799.4,804,805z M755.2,826.1L755.2,826.1L755.2,826.1c-8.3,0.1-12.6,0.1-14.8,0.2c0.4-6.9,2.6-13.5,6.6-19.1
		c3.3,1.2,6.7,2.1,10.3,2.9C755.9,815.4,755.2,820.8,755.2,826.1z M755.2,829.1c0.1,5.2,0.8,10.4,2.1,15.4c-3.8,0.8-7.5,2-11.2,3.5
		c-3.6-5.6-5.6-12-5.8-18.7C743.1,829.1,748.4,829.1,755.2,829.1L755.2,829.1z M760,810.8c4.8,1,9.7,1.4,14.4,1.7v13.8h-16.2
		C758.2,821,758.8,815.9,760,810.8L760,810.8z M774.5,792.2v17.4c-4.5-0.1-9.2-0.7-13.6-1.5C764.8,796.9,771.4,793.2,774.5,792.2
		L774.5,792.2z M778.1,792L778.1,792c2.9,1,10,4.5,14.1,16.2c-4.7,0.8-9.4,1.3-14.2,1.3L778.1,792z M767.4,793.1
		c-4.4,3.8-7.6,8.7-9.3,14.3c-3.1-0.7-6.2-1.5-9.2-2.6C753.7,799.1,760.1,795,767.4,793.1L767.4,793.1z M748.1,850.3
		c3.3-1.3,6.8-2.3,10.3-3.1c3.9,11.2,10.6,15.4,14.4,16.9C763,863.1,754,858.2,748.1,850.3L748.1,850.3z M774.5,861.5
		c-3-1.1-9.4-4.4-13.4-14.9c4.4-0.8,8.8-1.2,13.4-1.3V861.5z M774.5,842.5c-4.8,0.1-9.5,0.5-14.2,1.4c-1.3-4.8-2-9.8-2.1-14.8h16.3
		V842.5z M778.1,812.4c5,0,10-0.5,15-1.4c1.3,5,1.9,10.1,1.9,15.3h-16.9V812.4z M780.5,832.1v35.1c17.9-1.9,33.3-17.2,35.1-35.1
		H780.5z M792.1,854c-4.3,0-7.2-2.9-7.3-5.2h5.1c0.1,0,0.5,0.8,0.8,1.1c0.1,0,0.2-0.1,0.4,0v-2.6c-2.7-0.6-6-1.5-6-5.2
		c0-3.5,3-5.2,7-5.2c4.5,0,6.7,2.6,7,5h-5.1c-0.1,0-0.4-0.5-0.6-0.7v2.3c2.7,0.6,6.2,1.5,6.2,5.1S796.6,854,792.1,854L792.1,854z
		 M776.9,771.5c-32,0-57.9,25.9-57.9,57.9s25.9,57.9,57.9,57.9s57.9-25.9,57.9-57.9l0,0l0,0C834.8,797.5,808.9,771.6,776.9,771.5
		L776.9,771.5z M776.9,880.7c-28.3,0-51.2-22.9-51.2-51.2s22.9-51.2,51.2-51.2s51.2,22.9,51.2,51.2S805.2,880.7,776.9,880.7
		L776.9,880.7L776.9,880.7z"/>
    </g>
    <g id="si-6">
        <circle class="service-bg" cx="929.8" cy="512.6" r="65.2"/>
        <path class="service-fg"  d="M929.6,455.1c-32,0-57.9,25.9-57.9,57.9s25.9,57.9,57.9,57.9s57.9-25.9,57.9-57.9l0,0
		l0,0C987.5,481.1,961.6,455.2,929.6,455.1L929.6,455.1z M929.6,564.3c-28.3,0-51.2-22.9-51.2-51.2s22.9-51.2,51.2-51.2
		s51.2,22.9,51.2,51.2S957.9,564.3,929.6,564.3L929.6,564.3L929.6,564.3z M957,526h1.3l-0.7-2.2L957,526z M932.4,550.6
		c19-1.9,33.6-16.6,35.4-34.6h-35.4V550.6z M956.6,522h2.1l2.2,6h-6.6L956.6,522z M948.5,523.9c0-1.3,1.2-1.9,2.7-1.9
		c1.3-0.1,2.4,0.7,2.7,2h-2c0,0-0.2-0.4-0.3-0.5c-0.2-0.1-0.3-0.1-0.5-0.1c-0.5,0-0.7,0.1-0.7,0.3c0,0.9,3.6,0.2,3.6,2.5
		c0,1.5-1.2,2-2.9,2s-2.7-0.3-2.8-2.3h2c0,1,0.2,0.6,0.3,0.7c0.2,0.1,0.4,0.2,0.6,0.3c0.5,0,0.8-0.1,0.8-0.4
		C952,525.6,948.4,526.3,948.5,523.9L948.5,523.9z M945.5,522h2v6h-2V522z M940.2,522l1.1,4.2l1.1-4.2h2.1l-2.2,6h-2.1l-2.1-6H940.2
		z M928.9,472.5c-21.7,0-39.3,17.6-39.2,39.3c0,21.7,17.6,39.2,39.2,39.2h1.7v-4h-0.1v-34l34,0.1h3.6v-1.4
		C968.1,490.1,950.6,472.5,928.9,472.5L928.9,472.5L928.9,472.5L928.9,472.5z M920.5,477.2c-3.4,2.6-7.1,7-9.6,14.4
		c-3.2-0.7-6.3-1.6-9.3-2.7C906.5,483.1,913.1,478.9,920.5,477.2L920.5,477.2z M899.8,491.3c3.4,1.2,6.8,2.2,10.3,3
		c-1.3,5.2-2,10.5-2,15.9c-8.3,0-12.5,0-14.7,0.1C893.7,503.4,895.9,496.8,899.8,491.3L899.8,491.3z M899.4,531.5
		c-3.7-5.5-5.8-11.9-6-18.5h14.7c0.1,5.1,0.8,10.3,2.2,15.2C906.6,529.1,902.9,530.2,899.4,531.5L899.4,531.5z M901.2,533.9
		c3.2-1.2,6.5-2.2,9.9-3c3.2,9.1,8.3,13.6,12.2,15.8C914.6,545.4,906.7,540.8,901.2,533.9L901.2,533.9z M927.4,545.5
		c-2-0.8-9.7-4.1-13.8-15.2c4.5-0.8,9.2-1.3,13.8-1.3V545.5z M927.4,526.2c-4.9,0.1-9.7,0.5-14.5,1.4c-1.3-4.8-2.1-9.7-2.2-14.6
		h16.7V526.2z M927.4,510.1h-16.7c0-5.2,0.7-10.3,2-15.3c4.9,0.9,9.8,1.4,14.7,1.6V510.1z M927.4,493.6c-4.7-0.1-9.4-0.6-14-1.5
		c4-11.7,12-14.9,14-15.8V493.6z M930.4,476.3c3,0.8,10,4.2,14.1,15.9c-4.6,0.9-9.4,1.3-14.1,1.3V476.3z M930.4,510.1v-13.7
		c5,0,10.1-0.5,15-1.4c1.3,4.9,1.9,10,1.9,15.1L930.4,510.1z M938.3,477.4c7.1,1.9,13.3,6,18,11.7c-2.9,1-5.8,1.9-8.8,2.6
		C945.2,484.4,941.6,480.1,938.3,477.4L938.3,477.4z M950.3,510.1c0-5.3-0.7-10.6-2-15.7c3.3-0.8,6.6-1.7,9.7-2.9
		c3.8,5.5,6,12,6.3,18.7L950.3,510.1z"/>
    </g>
    <g id="si-7">
        <circle class="service-bg"  cx="501" cy="65.5" r="65.2"/>
        <path class="service-fg"  d="M501,7.6c-32,0-57.9,25.9-57.9,57.9s25.9,57.9,57.9,57.9s57.9-25.9,57.9-57.9l0,0l0,0
		C558.9,33.5,533,7.6,501,7.6z M501,116.7c-28.3,0-51.2-22.9-51.2-51.2s22.9-51.2,51.2-51.2s51.2,22.9,51.2,51.2l0,0l0,0
		C552.2,93.8,529.3,116.7,501,116.7z M487.9,82.6c3.6-0.5,7.2-0.7,10.8-0.8V90c1-0.8,3-1.6,4-2.6v-5.6c1,0,3.2,0.1,4.8,0.2
		c0.8-1.1,1.5-2.2,2.1-3.3c-2.2-0.2-4.9-0.3-6.9-0.3V52.3c3-0.1,6.5-0.3,9.6-0.6l4.4-5.2c-1.2-3.5-3-6.8-5.3-9.7
		c3.3,1.2,6.3,3,9,5.3l2.7-3.3c-6.2-5.3-14.2-8.3-22.4-8.3l0,0c-19.2,0-34.7,15.6-34.7,34.8c0,12.5,6.7,24,17.6,30.2l6.2-1.6
		c-4.8-1.8-9-4.9-12.3-8.8c2.3-0.8,4.6-1.5,7-1.9c1.2,3.8,3,7.4,5.5,10.6l1.3-0.3c0.8-0.2,1.6-0.5,2.4-0.8
		C491,89.7,489.1,86.3,487.9,82.6z M502.7,34.9c0.2,0,0.5,0,0.7,0.1c4.1,1.5,7.8,6.3,10.2,13.1c-3.6,0.5-7.2,0.7-10.9,0.8V34.9z
		 M498.7,61.6v1.9h-13.4c0.1-4.1,0.6-8.1,1.6-12.1c3.9,0.6,7.9,0.9,11.8,1V61.6z M498,34.9c0.3,0,0.7,0,0.7-0.1v13.9
		c-3.6,0-7.3-0.3-10.9-0.8C490.2,41.3,493.9,36.4,498,34.9z M475.3,82.4c-2.9-4.5-4.7-9.7-5.1-15h11.6c0.1,4.3,0.7,8.5,1.7,12.6
		C480.7,80.5,478,81.3,475.3,82.4L475.3,82.4z M481.8,63.4h-11.6c0.4-5.4,2.1-10.6,5.1-15.1c2.6,1.1,5.4,1.8,8.2,2.3
		C482.5,54.8,481.9,59.1,481.8,63.4L481.8,63.4z M477.5,45.5c3.4-4,7.7-7,12.6-8.9c-2.5,3.2-4.4,6.8-5.6,10.7
		C482.1,47,479.7,46.4,477.5,45.5L477.5,45.5z M485.3,67.4h13.4v10.9c-4,0.1-7.9,0.5-11.8,1.1C485.9,75.4,485.4,71.4,485.3,67.4
		L485.3,67.4z M543.5,65.4h-10.2c-0.1,18-14.8,32.6-32.8,32.5c-2.8,0-5.6-0.4-8.3-1.1c14.2-3.9,24-16.7,24-31.4H506l18.7-22
		L543.5,65.4z"/>
    </g>
</svg>