<?xml version="1.0" encoding="utf-8"?>
<!-- Generator: Adobe Illustrator 19.1.0, SVG Export Plug-In . SVG Version: 6.00 Build 0)  -->
<svg version="1.1" id="Layer_1" xmlns="http://www.w3.org/2000/svg" xmlns:xlink="http://www.w3.org/1999/xlink" x="0px" y="0px"
	 viewBox="0 0 220 250" style="enable-background:new 0 0 220 250;" xml:space="preserve">
<style type="text/css">
	.st0{fill:#191036;}
</style>
<path class="st0" d="M94.9,250.4c1.1-14,8.7-77.6,9-82.1c2.9,1.8,10.3,1.7,13,0c0.3,4.5,12,68.1,13.2,82.1h90.4
	c-1.9-16.4-4.7-91.5-6.9-95.3c-1.3-3.7-3.5-5.7-6.7-6.7c-20.2-6.6-55.8-15.9-55.8-15.9c0,0.2-0.1,0-0.1,0s-6.6-0.3-10.1-6.3
	c-3.4-5.9-1-10.7,0.9-15c0.4-0.6,0.8-1.1,1-1.6c0.8-1.5,6.3-10.8,7.5-21.9c8.3-6.7,10.3-15.6,8.8-23.4c-0.2-1.2-0.6-2.3-1-3.2
	c0.9-4.5,0.9-11.9,0.1-17c0.8-8.9-4.5-21.9-11.9-25.9c-1.9-10.5-15.6-17.6-36.3-17.6C85.4,0.4,63,17.3,62.7,43.6
	c-0.8,5.1-0.8,12.7,0.2,17.3c-0.4,0.9-0.8,2-1,3.2c-1.5,7.8,0.6,16.7,8.8,23.4c1.2,11.1,6.6,20.4,7.5,21.9c0.4,0.7,1,1.6,1.8,2.6
	c1.6,4.5,2.8,8.1,0,13.9c-3,6.2-10.1,6.3-10.1,6.3s-35.6,9.3-55.8,15.9c-3.2,1-5.4,3-6.7,6.7c-2.2,3.8-5,78.9-6.9,95.3H94.9z
	 M116.5,164.8c-0.8,1.3-11.4,1.3-12.1,0c-1.6-2.8-3.7-12.4-3.7-14.8c0-5.7,19.7-5.7,19.7,0C120.3,152.4,118.1,162,116.5,164.8z
	 M110.5,142c-11.9-2.3-21.9-6.5-26.6-14c1.5-3.1,1.9-7.3,1.5-9.4h0c3,3.2,6.4,6.5,9,8.4c5.7,4.3,9.6,4.6,16,4.6
	c6.4,0,10.3-0.2,16-4.6c2.7-2,6.1-5.4,9.2-8.6c-0.3,2.1,0,6.5,1.5,9.6C132.4,135.5,122.3,139.7,110.5,142z M134.5,31.9
	c17.3,3.4,14,24.4,13,28.8c-0.2,1-0.4,1.9-0.5,2.9c-0.4,0.1-0.7,0.2-1,0.2c-7.3-1.6-24.9-0.8-32.1,3.1c-1.9,0.2-4.8,0.3-7.1,0
	c-7.2-3.9-24.8-4.6-32.1-3.1c-0.2,0-0.4-0.1-0.6-0.1c0-0.5,0-1.1-0.1-1.6C72.3,32.4,118.4,51.2,134.5,31.9z M142.7,77
	c-1.2,2.6-7.2,4.5-14.1,4.6c-5.7,0.1-9.3-1.2-9.9-2.4c-1.9-3.8-1.7-7.3-1.3-10.7c6-2.3,19.9-3.1,26.3-1.9
	C144.5,71.6,144.2,73.9,142.7,77z M102.1,79.2c-0.6,1.2-4.2,2.5-9.9,2.4c-6.9-0.1-12.9-2-14.1-4.6c-1.5-3.1-1.9-5.4-1-10.4
	c6.4-1.2,20.3-0.4,26.3,1.9C103.9,71.9,104.1,75.4,102.1,79.2z M73.4,86.2L73.4,86.2l-0.9-0.7L71,84.4h0v0
	c-6.3-6.3-8.4-13.2-7.1-19.8c0.6-2.9,1.7-4.9,3.1-5.3c1.2-0.4,2.5,0.5,3.5,1.3c-0.1,0.8-0.1,1.7-0.2,2.5c-0.1,1.5-0.1,0.5-0.1,1.9
	c0,1.3,0,2.6,0,3.9c0.1,4.1,0.2,7.6,0.4,10.9l1.6,0.5c0,0,0.8-1.7,1.4-5.2c0.3,1.1,0.8,1.9,1.4,3.3c2.1,4.5,10.7,6.2,17.3,6.2
	c2.5,0,11-0.2,12.8-3.8c1.4-2.7,1.9-5.2,2-8.6c2.1,0.2,3.2,0.1,3.2,0.1s1.1,0,3.2-0.1c0.1,3.4,0.6,5.9,2,8.6
	c1.9,3.6,10.3,3.8,12.8,3.8c6.7-0.1,15.2-1.8,17.3-6.2c0.8-1.7,1.3-2.5,1.6-4c0.8,3.7,2,5.7,2,5.7l0.8-0.2c0.2-3.2,0.3-6.8,0.4-10.9
	c0-1.3,0-2.6,0-3.9c0-1.4,0-0.4-0.1-1.9c0-0.9-0.1-1.7-0.2-2.5c1-0.9,2.3-1.7,3.5-1.3c1.4,0.4,2.6,2.4,3.2,5.3
	c1.3,6.6-0.9,13.5-7.1,19.8l0,0l-1.4,1.1l-0.9,0.7v0c-1.5,12.1-4.9,21.3-12.2,28.5c-14.1,13.9-16.1,13.9-24.9,13.9
	c-8.8,0-10.8,0-24.9-13.9C78.3,107.5,74.9,98.3,73.4,86.2z"/>
</svg>
