<?xml version="1.0" encoding="utf-8"?>
<!-- Generator: Adobe Illustrator 20.1.0, SVG Export Plug-In . SVG Version: 6.00 Build 0)  -->
<svg version="1.1" id="Layer_1" xmlns="http://www.w3.org/2000/svg" xmlns:xlink="http://www.w3.org/1999/xlink" x="0px" y="0px"
	 viewBox="0 0 769.9 771.2" style="enable-background:new 0 0 769.9 771.2;" xml:space="preserve">
<style type="text/css">
	.st0{fill:#FFFFFF;}
	.st1{enable-background:new    ;}
	.st2{fill:#76B82A;}
</style>
<title>global-business-expansion</title>
<path class="st0" d="M196.8,185.4l-2.6-3c38.7-33.1,85.7-55.4,135.8-64.5l0.7,3.9C281.3,130.8,235,152.8,196.8,185.4z"/>
<g class="st1">
	<path class="st0" d="M579,194.9c-40.1-37.8-89.9-63-144-73l0.7-3.9c54.9,10.1,105.4,35.7,146.1,74L579,194.9z"/>
</g>
<g class="st1">
	<path class="st0" d="M670.9,411.2l-4-0.2c0.2-4,0.3-8.1,0.3-12.2c0.1-41.5-9.4-83.2-27.4-120.6l3.6-1.7
		c18.2,37.9,27.8,80.3,27.7,122.3C671.2,402.9,671.1,407.1,670.9,411.2z"/>
</g>
<g class="st1">
	<path class="st0" d="M565.3,619.8l-2.5-3.1c15.2-12.3,29.1-26.2,41.5-41.3c15.2-18.7,28-39.3,38-61.3l3.6,1.7
		c-10.1,22.3-23.1,43.2-38.6,62.1C594.8,593.2,580.7,607.3,565.3,619.8z"/>
</g>
<g class="st1">
	<path class="st0" d="M383,684.3c-0.1,0-0.2,0-0.3,0c-30.3,0-60.2-4.6-88.8-13.8l1.2-3.8c28.2,9,57.7,13.6,87.6,13.6
		c0.1,0,0.2,0,0.3,0c29.2,0,58-4.4,85.9-13.1l1.2,3.8C441.8,679.8,412.5,684.3,383,684.3z"/>
</g>
<g class="st1">
	<path class="st0" d="M201.5,621c-38-30.4-67.8-69.9-86.1-114.5l3.7-1.5c18.1,43.9,47.5,82.9,84.9,112.9L201.5,621z"/>
</g>
<g class="st1">
	<path class="st0" d="M94.1,402.5c-0.6-47.5,10.8-94.7,33.1-136.7l3.5,1.9c-22,41.3-33.3,87.9-32.6,134.7L94.1,402.5z"/>
</g>
<path class="st0" d="M383.2,66c-30.5,0-55.2,24.7-55.2,55.2s24.7,55.2,55.2,55.2s55.2-24.7,55.2-55.2C438.4,90.7,413.7,66,383.2,66z
	 M383.2,170L383.2,170c-26.9,0-48.8-21.8-48.8-48.8s21.8-48.8,48.8-48.8S432,94.2,432,121.2S410.1,170,383.2,170z M382.5,88.1
	c-17.7,0-32,14.4-32,32c0,17.4,13.8,31.5,31.1,32l0,0l0,0c0.3,0,0.6,0,0.9,0h1.4l0,0l0,0v-30.9c10.2,0,20.7,0,27.6,0l0,0h3
	c0-0.4,0-0.7,0-1.1C414.6,102.4,400.2,88.1,382.5,88.1z M370.4,135.3c3.9-0.8,7.7-1,11.3-1.1v13.5
	C379.5,147.1,373.7,144.5,370.4,135.3z M381.7,91.2v14.1c-4.3-0.1-8.2-0.6-11.5-1.2C373.5,94.6,379.5,91.9,381.7,91.2z M381.7,107.7
	v11.2c-5.5,0-10.1,0-13.8,0c0.1-5,0.7-9.1,1.6-12.5C373,107,377.1,107.5,381.7,107.7z M381.7,121.2V132c-3.8,0-7.8,0.4-12,1.2
	c-0.9-3.2-1.6-7.2-1.7-12C372.1,121.2,376.8,121.2,381.7,121.2z M375.5,92c-2.7,2.2-5.6,5.8-7.6,11.6c-3.5-0.8-6.1-1.6-7.6-2.2
	C364.1,96.9,369.5,93.5,375.5,92z M358.8,103.4c1.3,0.5,4.3,1.5,8.4,2.4c-0.9,3.6-1.5,7.8-1.6,13c-6.8,0-10.2,0-12,0
	C353.8,113.1,355.7,107.8,358.8,103.4z M358.5,136.3c-2.9-4.4-4.7-9.5-4.9-15.1c2.1,0,6.5,0,12,0c0.1,4.9,0.8,9,1.7,12.4
	C364.4,134.3,361.5,135.2,358.5,136.3z M359.9,138.3c2.7-1,5.4-1.8,8.1-2.4c2.7,7.6,6.9,11.2,10.1,13
	C370.8,147.7,364.3,143.8,359.9,138.3z M404.9,101.6c-2.4,0.9-4.8,1.5-7.1,2.1c-1.9-5.8-4.8-9.4-7.4-11.6
	C396.2,93.8,401.2,97.1,404.9,101.6z M384,91.2c2.2,0.7,8.2,3.4,11.5,13c-4,0.8-7.9,1.1-11.5,1.1V91.2z M384,107.7
	c3.8,0,7.9-0.4,12.2-1.2c0.9,3.3,1.5,7.4,1.6,12.4c-5.2,0-9.7,0-13.8,0L384,107.7L384,107.7z M400.1,118.9
	c-0.1-5.1-0.7-9.3-1.6-12.9c2.6-0.6,5.3-1.4,7.9-2.4c3.1,4.4,4.9,9.6,5.1,15.3C407.5,118.9,403.6,118.9,400.1,118.9z M385.8,123.3
	v28.6c15.1-1.5,27.1-13.6,28.5-28.6C414.3,123.3,385.8,123.3,385.8,123.3z M400.9,125.2h0.1l0,0c0.1,0,0.2,0,0.2,0h0.1
	c0.5,0.1,0.8,0.4,1.1,0.8c0.1,0.2,0.1,0.4,0.1,0.6c0,0.7-0.5,1.2-1.1,1.4c-0.8,0.2-1.7-0.3-1.8-1.1S400.1,125.4,400.9,125.2z
	 M391.7,125.2h0.1l0,0c0.1,0,0.2,0,0.2,0h0.1c0.5,0.1,0.8,0.4,1.1,0.8c0.1,0.2,0.1,0.4,0.1,0.6c0,0.7-0.5,1.2-1.1,1.4
	c-0.8,0.2-1.7-0.3-1.8-1.1C390.4,126.1,391,125.4,391.7,125.2z M395.7,134.3C395.7,134.3,395.6,134.4,395.7,134.3
	c0,0.2-0.1,0.4-0.3,0.5c-0.1,0.1-0.3,0.1-0.5,0.1s-0.4-0.2-0.5-0.4c0-0.1,0-0.2,0-0.3c0-1.5,0-1.3,0-2.8l0,0l0,0c-0.1,0-0.3,0-0.5,0
	c0,0,0,0,0,0.1c0,3.1,0,4.1,0,9.8c0,0,0,0,0,0.1s0,0.1,0,0.1c-0.1,0.3-0.3,0.5-0.6,0.6h-0.1c0,0-0.1,0-0.2,0s0,0-0.1,0
	c-0.2,0-0.4-0.2-0.5-0.3s-0.1-0.3-0.1-0.4c0-0.3,0-0.4,0-0.4l0,0c0-1.3,0-3.8,0-5.1c0,0,0,0,0-0.1c-0.2,0-0.4,0-0.6,0c0,0,0,0,0,0.1
	c0,2.4,0,3.1,0,5.5c0,0,0,0,0,0.1c0,0.4-0.2,0.7-0.6,0.8c0,0,0,0-0.1,0c0,0-0.1,0-0.2,0s0,0-0.1,0c-0.3,0-0.5-0.2-0.6-0.5
	c0-0.1,0-0.2,0-0.3c0-5.7,0-6.7,0-9.8l0,0l0,0c-0.1,0-0.3,0-0.5,0c0,0,0,0,0,0.1c0,1.5,0,1.3,0,2.8v0.1c0,0.1,0,0.3-0.1,0.4
	c-0.1,0.2-0.4,0.3-0.6,0.2c-0.3,0-0.5-0.2-0.6-0.5l0,0c0-2.1,0-2.4,0-4.5l0,0c0-0.1,0.1-0.3,0.1-0.5c0.3-0.4,0.7-0.7,1.2-0.7
	c1.5,0,3.1,0,4.7,0c0.2,0,0.4,0,0.6,0.1c0.4,0.2,0.7,0.5,0.8,0.9v0.1C395.7,131.9,395.7,132.3,395.7,134.3z M404.8,134.3
	C404.8,134.3,404.8,134.4,404.8,134.3c0,0.2-0.1,0.4-0.3,0.5c-0.1,0.1-0.3,0.1-0.5,0.1s-0.4-0.2-0.5-0.4c0-0.1,0-0.2,0-0.3
	c0-1.5,0-1.3,0-2.8l0,0l0,0c-0.1,0-0.3,0-0.5,0c0,0,0,0,0,0.1c0,3.1,0,4.1,0,9.8c0,0,0,0,0,0.1s0,0.1,0,0.1
	c-0.1,0.3-0.3,0.5-0.6,0.6h-0.1c0,0-0.1,0-0.2,0c0,0,0,0-0.1,0c-0.2,0-0.4-0.2-0.5-0.3s-0.1-0.3-0.1-0.4c0-0.3,0-0.4,0-0.4l0,0
	c0-1.3,0-3.8,0-5.1c0,0,0,0,0-0.1c-0.2,0-0.4,0-0.6,0c0,0,0,0,0,0.1c0,2.4,0,3.1,0,5.5c0,0,0,0,0,0.1c0,0.4-0.2,0.7-0.6,0.8
	c0,0,0,0-0.1,0c0,0-0.1,0-0.2,0c0,0,0,0-0.1,0c-0.3,0-0.5-0.2-0.6-0.5c0-0.1,0-0.2,0-0.3c0-5.7,0-6.7,0-9.8l0,0l0,0
	c-0.1,0-0.3,0-0.5,0c0,0,0,0,0,0.1c0,1.5,0,1.3,0,2.8v0.1c0,0.1,0,0.3-0.1,0.4c-0.1,0.2-0.4,0.3-0.6,0.2c-0.3,0-0.5-0.2-0.6-0.5l0,0
	c0-2.1,0-2.4,0-4.5l0,0c0-0.1,0.1-0.3,0.1-0.5c0.3-0.4,0.7-0.7,1.2-0.7c1.5,0,3.1,0,4.7,0c0.2,0,0.4,0,0.6,0.1
	c0.4,0.2,0.7,0.5,0.8,0.9v0.1C404.8,131.9,404.8,132.3,404.8,134.3z"/>
<g>
	<path class="st0" d="M617.9,176.6c-30.5,0-55.2,24.7-55.2,55.2s24.7,55.2,55.2,55.2s55.2-24.8,55.2-55.3S648.4,176.6,617.9,176.6
		L617.9,176.6z M617.9,280.6c-26.9,0-48.8-21.8-48.8-48.8s21.8-48.8,48.8-48.8s48.8,21.8,48.8,48.8S644.8,280.6,617.9,280.6
		L617.9,280.6z"/>
	<path class="st0" d="M605.5,248.1c3.5-0.5,6.9-0.7,10.4-0.7v7.8c1.2-0.7,2.3-1.5,3.3-2.4v-5.4c1.6,0,3.2,0.1,4.7,0.2
		c0.7-1,1.4-2.1,1.9-3.2c-2.1-0.2-4.3-0.3-6.6-0.3v-25c3.2,0,6.4-0.2,9.2-0.6l4.2-5c-1.2-3.4-2.8-6.5-5-9.3c3.1,1.2,6,2.9,8.6,5.1
		l2.6-3c-6-5-13.5-7.8-21.3-7.8l0,0c-18.2,0-33,14.8-33,33c0,11.9,6.4,22.9,16.7,28.7l5.9-1.6c-4.5-1.8-8.6-4.6-11.7-8.3
		c2.2-0.8,4.4-1.4,6.6-1.8c1.1,3.6,2.9,7.1,5.3,10.1l1.2-0.3c0.8-0.2,1.6-0.5,2.3-0.7C608.7,255.4,606.9,252,605.5,248.1z
		 M619.2,202.6c0.3,0,0.6,0,0.8,0c3.9,1.4,7.4,6,9.6,12.5c-3.5,0.5-6.9,0.7-10.4,0.7L619.2,202.6L619.2,202.6z M616,228.1v1.9h-13
		c0.1-3.9,0.6-7.8,1.6-11.6c3.8,0.5,7.6,0.8,11.4,0.8V228.1z M615.1,202.7c0.3,0,0.6,0,0.8,0V216c-3.5,0-7-0.3-10.4-0.7
		C607.8,208.7,611.2,204.1,615.1,202.7L615.1,202.7z M593.4,247.7c-2.9-4.3-4.6-9.3-4.8-14.4h11c0.1,4.1,0.6,8.2,1.6,12.2
		C598.6,245.9,595.9,246.6,593.4,247.7L593.4,247.7z M599.6,229.9h-11c0.3-5.2,1.9-10.1,4.8-14.4c2.5,1,5.1,1.8,7.8,2.3
		C600.2,221.8,599.7,225.8,599.6,229.9L599.6,229.9z M595.5,212.8c3.2-3.8,7.3-6.7,12-8.4c-2.2,2.6-4,6.1-5.4,10.2
		C599.9,214.2,597.6,213.6,595.5,212.8z M603,233.3h13V244c-3.8,0-7.6,0.3-11.4,0.8C603.6,241.1,603,237.2,603,233.3L603,233.3z"/>
	<path class="st0" d="M640.5,210.6l-17.9,21h9.7c0,14-9.4,26.3-22.9,29.9c16.6,4.5,33.6-5.3,38.1-21.8c0.7-2.7,1.1-5.4,1.1-8.2h9.7
		L640.5,210.6z"/>
</g>
<g>
	<circle class="st0" cx="634.6" cy="464.5" r="134.7"/>
	<path class="st2" d="M634.6,345.1c-66.1,0-119.6,53.5-119.6,119.7s53.5,119.6,119.6,119.6s119.7-53.5,119.7-119.6l0,0
		C754.2,398.6,700.7,345.1,634.6,345.1z M634.6,570.5c-58.3,0-105.8-47.3-105.8-105.8c0-58.3,47.3-105.8,105.8-105.8
		c58.3,0,105.8,47.3,105.8,105.8l0,0C740.4,523.2,692.9,570.5,634.6,570.5L634.6,570.5z M632.8,391c-39.7,0-72,32.3-72,72
		c0,39,31.2,70.9,70,72l0,0h2l0,0l0,0h3h0.2v-69.4c23,0,46.4,0,62,0l0,0h6.7c0-1.1,0-1.5,0-2.6C704.8,423.3,672.5,391,632.8,391z
		 M683.3,421.8c-5.4,2-10.8,3.5-16,4.8c-4.3-13.2-10.8-21.2-16.9-26.2C663.4,403.8,674.9,411.6,683.3,421.8z M661.9,427.7
		c-9.1,1.7-17.8,2.4-25.8,2.4v-31.6C640.9,399.7,654.5,405.8,661.9,427.7z M599.9,465.6c9.5,0,19.9,0,31,0v24.3
		c-9.1,0-18,0.9-26.9,2.6C601.8,485.1,600.3,476.4,599.9,465.6z M630.9,460.4c-12.6,0-22.8,0-31,0c0.2-11.3,1.5-20.6,3.7-28.2
		c8.9,1.7,18.2,2.8,27.3,3V460.4z M630.9,430c-9.5-0.2-18.4-1.3-25.8-2.8c7.4-21.5,20.8-27.3,25.8-28.8V430z M617.2,399.7
		c-6.1,4.8-12.8,13-17.3,26.4c-8-1.7-13.9-3.7-17.1-4.8C591.7,410.7,603.6,403.2,617.2,399.7z M579.5,425.5
		c6.3,2.2,12.6,4.1,18.9,5.4c-2.2,8-3.5,17.6-3.7,29.3c-15.4,0-23.2,0-27.1,0.2C568.3,447.4,572.6,435.5,579.5,425.5z M594.7,465.6
		c0.4,11.1,1.7,20.4,3.9,28c-6.7,1.5-13.4,3.7-19.9,6.1c-6.7-9.8-10.6-21.5-11.3-34C572.4,465.6,582.3,465.6,594.7,465.6z
		 M582.1,504c6.1-2.2,12.1-4.1,18.2-5.4c6.1,16.9,15.6,25.1,22.8,29C606.4,525,592.1,516.3,582.1,504z M605.5,497.5
		c8.5-1.5,16.9-2.4,25.4-2.4v30.3C626.1,523.9,613.1,518,605.5,497.5z M636.1,435c9.3,0,18.4-0.9,27.3-2.6c2,7.6,3.5,16.7,3.5,27.7
		c-11.5,0-21.9,0-31,0V435H636.1L636.1,435z M672.3,460.4c-0.2-11.5-1.5-21-3.7-29c6.1-1.3,11.9-3.3,17.8-5.4
		c6.9,10,11.1,21.7,11.5,34.5C688.8,460.4,680.3,460.4,672.3,460.4z M640.2,470.1v64.4c34-3.5,60.7-30.3,64.2-64.4H640.2z
		 M657.6,493.5h-3.7L650,482h3.9l2,7.6l2.2-7.6h3.9L657.6,493.5z M666.9,493.5h-3.7V482h3.7V493.5z M673.6,494c-3,0-5-1.7-5.2-3.9
		h3.7c0,0.4,0.2,0.7,0.7,0.9c0.2,0.2,0.7,0.2,1.1,0.2c0.9,0,1.5-0.2,1.5-0.9c0-1.7-6.5-0.4-6.5-5c0-2.4,2.2-3.7,5-3.7s4.6,1.7,5,3.7
		h-3.8c0-0.4-0.2-0.7-0.4-0.9s-0.7-0.2-1.1-0.2c-0.9,0-1.1,0.2-1.1,0.7c0,1.7,6.5,0.7,6.5,4.8C679,492.7,676.8,494,673.6,494
		L673.6,494z M687.7,492h-3.9l-0.4,1.5h-3.7l4.1-11.5h3.9l4.1,11.5h-3.7L687.7,492z M684.6,489.6h2.4l-1.3-4.1L684.6,489.6z"/>
</g>
<path class="st0" d="M515.8,606.8c-18.3,0-33.2,14.9-33.2,33.2s14.9,33.2,33.2,33.2h1.4v-2.6v-0.5v-28.9c10.6,0,21.5,0,28.7,0l0,0
	h3.1c0-0.5,0-0.7,0-1.2C549,621.7,534.1,606.8,515.8,606.8z M539.1,621.1c-2.5,0.9-5,1.7-7.5,2.2c-2-6.2-5-9.9-7.8-12.2
	C529.9,612.7,535.2,616.3,539.1,621.1z M529.3,623.8c-4.2,0.8-8.3,1.1-12.1,1.1v-14.8C519.3,610.8,525.8,613.5,529.3,623.8z
	 M500.5,641.2c4.3,0,9.2,0,14.3,0v11.3c-4.2,0-8.3,0.5-12.4,1.2C501.4,650.3,500.7,646.2,500.5,641.2z M514.8,638.8
	c-5.7,0-10.4,0-14.2,0c0.1-5.2,0.7-9.4,1.7-12.9c4.1,0.8,8.3,1.3,12.5,1.4V638.8z M514.8,624.9c-4.4-0.1-8.4-0.6-11.8-1.3
	c3.4-9.8,9.4-12.6,11.8-13.4V624.9z M508.6,610.8c-2.8,2.2-6,6-8,12.3c-3.7-0.8-6.4-1.7-7.9-2.3C496.7,616,502.3,612.4,508.6,610.8z
	 M491.1,622.8c2.9,1,5.8,1.9,8.8,2.6c-1,3.7-1.6,8.1-1.7,13.4c-7.1,0-10.7,0-12.5,0.1C486,632.9,487.9,627.4,491.1,622.8z
	 M498.1,641.2c0.2,5.2,0.8,9.4,1.9,13c-3.1,0.7-6.1,1.6-9.1,2.8c-3.1-4.5-5-9.9-5.2-15.8C487.9,641.2,492.4,641.2,498.1,641.2z
	 M492.4,659c2.7-1,5.5-1.8,8.3-2.5c2.8,7.7,7.1,11.5,10.4,13.3C503.6,668.6,497,664.6,492.4,659z M503.1,656
	c3.8-0.7,7.8-1.1,11.7-1.1v13.9C512.6,668.1,506.6,665.4,503.1,656z M517.2,627.2c4.3,0,8.6-0.4,12.7-1.3c0.9,3.5,1.6,7.7,1.6,12.8
	c-5.4,0-10.2,0-14.4,0L517.2,627.2L517.2,627.2z M534,638.8c-0.1-5.3-0.7-9.7-1.7-13.3c2.8-0.6,5.6-1.5,8.3-2.5
	c3.1,4.5,5,10,5.3,15.8C541.6,638.8,537.7,638.8,534,638.8z M527.6,651.5c0,0.4,0.3,0.6,0.7,0.9v-1.5
	C527.9,650.9,527.6,651.2,527.6,651.5z M530.3,656.9v1.8c0.6-0.1,0.9-0.5,0.9-0.9C531.2,657.4,530.8,657,530.3,656.9z M519.2,643.3
	V673c15.7-1.6,28-14,29.6-29.7H519.2z M529.1,661.9c-3.6,0-6-2.1-6.1-4.5h4.3c0.1,0.4,0.3,0.8,0.7,1.1c0.1,0,0.2,0.1,0.3,0.1v-2.3
	c-2.3-0.5-5-1.3-5-4.4c0-2.9,2.5-4.3,5.9-4.3c3.8,0,5.6,1.9,5.9,4.3h-4.3c0-0.4-0.3-0.7-0.6-0.9v1.9c2.3,0.5,5.2,1.2,5.2,4.3
	S532.9,661.9,529.1,661.9z M515.8,584.9c-30.5,0-55.2,24.7-55.2,55.2s24.7,55.2,55.2,55.2s55.2-24.7,55.2-55.2
	C571,609.6,546.3,584.9,515.8,584.9L515.8,584.9z M515.8,688.9c-26.9,0-48.8-21.9-48.8-48.8c0-26.9,21.9-48.8,48.8-48.8
	c26.9,0,48.7,21.8,48.8,48.8C564.6,667,542.8,688.8,515.8,688.9C515.9,688.9,515.8,688.9,515.8,688.9z"/>
<g>
	<path class="st0" d="M250.3,585.2c-30.5,0-55.2,24.7-55.2,55.2s24.7,55.2,55.2,55.2s55.2-24.7,55.2-55.2S280.8,585.2,250.3,585.2
		L250.3,585.2z M250.3,689.2c-26.9,0-48.8-21.8-48.8-48.8s21.8-48.8,48.8-48.8s48.8,21.9,48.8,48.8l0,0
		C299.1,667.4,277.2,689.2,250.3,689.2L250.3,689.2z"/>
	<polygon class="st0" points="232.1,627.1 229.7,623.9 223.2,628.9 232.1,640.6 238.4,648.9 244.9,644 	"/>
	<path class="st0" d="M225.3,619.6c-0.5,0-0.9,0.2-1.3,0.4l-3,2.2c-1,0.7-1.2,2.1-0.4,3.1l1.2,1.6l6.5-4.9l-1.2-1.6
		C226.6,619.9,226,619.6,225.3,619.6z"/>
	<path class="st0" d="M221.8,627l-1.2-1.6c-0.7-1-0.5-2.4,0.4-3.1l3-2.2c1-0.7,2.4-0.5,3.1,0.4l0,0l1.2,1.6L221.8,627z"/>
	<path class="st0" d="M268.8,614.2v-2c0-0.8-0.7-1.5-1.5-1.5s-1.5,0.7-1.5,1.5l0,0v2h-1.4v-2c0-0.8-0.7-1.5-1.5-1.5
		s-1.5,0.7-1.5,1.5l0,0v2H260v-2c0-0.8-0.7-1.5-1.5-1.5s-1.5,0.7-1.5,1.5l0,0v2h-1.4v-2c0-0.8-0.7-1.5-1.5-1.5s-1.5,0.7-1.5,1.5l0,0
		v2h-1.5v-2c0-0.8-0.7-1.5-1.5-1.5s-1.5,0.7-1.5,1.5l0,0v2h-1.4v-2c0-0.8-0.7-1.5-1.5-1.5s-1.5,0.7-1.5,1.5l0,0v2h-1.4v-2
		c0-0.8-0.7-1.5-1.5-1.5s-1.5,0.7-1.5,1.5l0,0v2h-1.4v-2c0-0.8-0.7-1.5-1.5-1.5s-1.5,0.7-1.5,1.5l0,0v2c-1.6,0.1-2.8,1.3-2.8,2.9
		v7.4l14.9,19.7l-8.8,6.7l-6.1-8v23c0,1.6,1.3,2.9,2.9,2.9h33.7c1.6,0,2.9-1.3,2.9-2.9v-48.8C271.7,615.6,270.4,614.3,268.8,614.2z
		 M238.7,651.6l8.7-6.5l0.8,9.7L238.7,651.6z"/>
</g>
<g>
	<path class="st0" d="M98.7,464.3c-0.1-0.5-0.6-0.9-1.1-1.1c-3.2-1.1-9-2.6-9-2.6c-0.2,0-0.3,0-0.5-0.1c-0.4,1-1.2,1.7-2.2,2
		c-1.2,0.5-2.5,0.7-3.8,0.7c-2.4,0-4.9-0.7-6-2.6c0,0,0,0,0-0.1c-0.2,0.1-0.3,0.1-0.5,0.1l0,0c0,0-5.7,1.5-9,2.6
		c-0.5,0.2-0.9,0.6-1.1,1.1c-0.3,0.6-0.8,4.7-1.1,7.4l0,0c3,5.1,9.8,8.6,17.6,8.6s14.6-3.6,17.6-8.6C99.5,469,99,464.9,98.7,464.3z"
		/>
	<path class="st0" d="M73.9,445.2c0.4-0.6,0.8-1.2,1.2-1.7c-0.5,1.7-0.6,3.4-0.3,5.1c-0.3,0.3-0.5,0.6-0.5,1
		c-0.3,1.4,0.3,2.9,1.4,3.8c0.2,1.3,0.6,2.5,1.2,3.6c0,0.1,0.1,0.2,0.2,0.2c0.5,0.7,0.5,1.7,0.1,2.4c-0.1,0.2-0.3,0.4-0.4,0.5l0,0
		c0.8,1.5,3.1,2.2,5.3,2.2c1.2,0,2.4-0.2,3.5-0.6c0.8-0.2,1.4-0.8,1.7-1.5c0,0,0-0.1,0.1-0.1c-0.2-0.2-0.3-0.3-0.4-0.5
		c-0.4-0.7-0.4-1.6,0-2.3c0.1-0.1,0.2-0.3,0.3-0.4c0.6-1.1,1-2.3,1.2-3.6c1.2-0.9,1.7-2.4,1.4-3.8c0-0.2-0.1-0.4-0.2-0.5
		c0.1-0.8,0.2-1.6,0.1-2.4l0,0c0-1.3-0.3-5-2-6.6l-0.3,0.8c-0.6-0.7-1.4-1.2-2.3-1.6L85,440c-0.8-0.6-1.7-1.1-2.6-1.3v0.6
		c-1-0.4-2.1-0.6-3.2-0.6l0.3,0.7c-1.2-0.5-2.5-0.6-3.7-0.1l1.8,1c-1.4-0.3-2.8,0.3-3.6,1.5l1.5-0.2
		C74.1,442.2,73.4,443.7,73.9,445.2z M77.8,459.9c0.2-0.5,0.3-1,0.2-1.6c0.5,0.5,0.9,1,1.5,1.4c1.6,1,3.6,1,5.1,0
		c0.5-0.4,1-0.9,1.4-1.4l0,0c-0.1,0.5,0,1.1,0.2,1.5C85.8,462,79.4,462.6,77.8,459.9z M75.7,448.9c0,0.1,0,0.3,0,0.4s0,0.2,0,0.3
		c0,0.2,0,0.4,0,0.6c0,0.7,0,1.2,0.1,1.8h0.1c0.5-1,0.6-2.1,0.3-3.1l0,0l0,0c0-0.5,0-1.2,0-2c0.1-0.5,0.1-1,0.3-1.5
		c0.2-0.4,0.4-0.7,0.7-0.7c1.2,0,3.3,0.9,5,0.9s3.8-0.9,5-0.9c0.9,0,1,1.8,1,3.2c-0.1,0.4-0.1,0.8-0.2,1.2c-0.1,1,0,2,0.3,3l0.3-0.1
		c0-0.5,0.1-1.1,0.1-1.8c0-0.2,0-0.4,0-0.6s0-0.1,0-0.3s0-0.3,0-0.4c0.1-0.2,0.3-0.2,0.6-0.2c0.2,0.1,0.4,0.4,0.5,0.9
		c0.2,1.2-0.2,2.4-1.1,3.2l0,0l-0.2,0.2l-0.1,0.1l0,0c-0.1,1.7-0.8,3.4-2,4.6c-2.3,2.3-2.6,2.3-4,2.3s-1.7,0-4-2.3
		c-1.2-1.3-1.9-2.9-2-4.6l0,0l-0.1-0.1l-0.2-0.2l0,0c-0.9-0.8-1.3-2-1.1-3.2c0.1-0.5,0.3-0.8,0.5-0.9
		C75.5,448.7,75.6,448.8,75.7,448.9L75.7,448.9z"/>
	<path class="st0" d="M138.4,464.7c-0.1-0.5-0.5-0.9-1-1c-3-1-8.1-2.3-8.6-2.5l0,0c-0.6-0.1-1.2-0.4-1.5-1c-0.4-0.7-0.4-1.6,0-2.3
		c0.1-0.1,0.1-0.2,0.2-0.2c0.6-1,1-2.2,1.1-3.4c1.1-0.9,1.6-2.3,1.3-3.6c0-0.2-0.1-0.3-0.2-0.5c0.1-0.9,0.1-1.8,0-2.6
		c0.1-1.6-0.6-3-1.8-4c-0.3-1.6-2.4-2.7-5.6-2.7c-3.8,0-7.2,2.6-7.2,6.7c-0.1,0.9-0.1,1.8,0,2.7c-0.1,0.2-0.1,0.3-0.2,0.5
		c-0.3,1.4,0.3,2.8,1.4,3.6c0.2,1.2,0.6,2.3,1.2,3.4c0.1,0.1,0.2,0.3,0.3,0.4c0.3,0.7,0.3,1.5,0,2.2c-0.2,0.5-0.7,0.9-1.3,1l0,0
		h-0.2c-1,0.3-5.7,1.5-8.4,2.4c-0.5,0.2-0.9,0.6-1,1c-0.3,0.6-0.8,4.6-1.1,7.2c2.9,4.9,9.3,8.3,16.8,8.3s13.9-3.4,16.8-8.3
		C139.1,469.3,138.7,465.3,138.4,464.7z M118.7,459L118.7,459c0.4,0.5,0.9,0.9,1.4,1.3c1.5,0.9,3.4,0.9,4.9,0c0.5-0.4,1-0.9,1.4-1.3
		c0,0.5,0,1,0.2,1.5c-0.9,2.6-7.4,2.2-8.2,0C118.6,460,118.7,459.5,118.7,459z M120.7,456.3c1.2-0.3,2.4-0.3,3.6,0
		c0.3,0.2,0.7,1.2,0,1.4c-0.4,0.1-0.7,0.1-1.1,0c-0.3-0.1-0.3-0.3-0.7-0.3s-0.3,0.2-0.6,0.2c-0.4,0.1-0.8,0.1-1.3,0
		C120,457.5,120.4,456.5,120.7,456.3L120.7,456.3z M116.8,454.1L116.8,454.1l-0.1-0.1l-0.2-0.2l0,0c-0.9-0.8-1.3-1.9-1.1-3.1
		c0.1-0.4,0.3-0.8,0.5-0.8s0.4,0.1,0.5,0.2c0,0.1,0,0.3,0,0.4s0,0.2,0,0.3c0,0.2,0,0.4,0,0.6c0,0.6,0,1.2,0.1,1.7l0.2,0.1
		c0.3-0.9,0.4-1.9,0.3-2.8c-0.3-9.6,6.8-1.7,9.2-4.7c2.7,0.5,2.1,3.8,2,4.5c-0.3,1-0.2,2.1,0.3,3h0.1c0-0.5,0-1,0.1-1.7
		c0-0.2,0-0.4,0-0.6c0-0.1,0-0.2,0-0.3c0-0.1,0-0.3,0-0.4c0.1-0.2,0.3-0.2,0.5-0.2c0.2,0.1,0.4,0.4,0.5,0.8c0.2,1.1-0.2,2.3-1.1,3.1
		l0,0l-0.2,0.2l-0.1,0.1l0,0c-0.1,1.6-0.7,3.2-1.8,4.4l-0.4,0.4v-1.5c0,0,0-2-3.2-2s-3.3,2-3.3,2v1.7l-0.6-0.6
		C117.6,457.3,116.9,455.7,116.8,454.1L116.8,454.1z"/>
	<path class="st0" d="M107,462.5c2.7-0.9,7.1-2.1,8-2.3h0.2l0,0c0.5-0.1,1-0.4,1.3-0.9c0.3-0.6,0.3-1.4,0-2.1
		c-0.1-0.1-0.1-0.2-0.2-0.4c-0.6-1-0.9-2.1-1.1-3.2c-1.1-0.8-1.6-2.1-1.3-3.5c0-0.2,0.1-0.3,0.2-0.5c-0.1-0.8-0.1-1.7,0-2.6
		c0-0.1,0-0.2,0-0.4c-2.5-0.7-4.9-1.4-4.9-1.4l0,0c-0.6-0.1-1.2-0.4-1.5-1c-0.4-0.7-0.3-1.6,0.1-2.3c0.1-0.1,0.1-0.2,0.2-0.2
		c0.6-1.1,1-2.2,1.2-3.4c1.1-0.9,1.6-2.3,1.4-3.7c0-0.2-0.1-0.3-0.2-0.5c0.1-0.9,0.1-1.8,0-2.7c0.1-1.6-0.6-3-1.8-4
		c-0.3-1.6-2.4-2.8-5.6-2.8c-3.8,0-7.2,2.6-7.3,6.7c-0.1,0.9-0.1,1.8,0,2.7c-0.1,0.2-0.1,0.3-0.2,0.5c-0.3,1.4,0.3,2.8,1.4,3.7
		c0.2,1.2,0.6,2.4,1.2,3.4c0.1,0.1,0.2,0.3,0.3,0.4c0.3,0.7,0.3,1.5,0,2.2c-0.3,0.6-0.9,1-1.5,1c0,0-2.3,0.6-4.8,1.3
		c0,0.6,0,1.2-0.1,1.8c0.1,0.2,0.1,0.3,0.2,0.5c0.3,1.4-0.3,2.8-1.3,3.6c-0.2,1.2-0.5,2.4-1.1,3.4c-0.1,0.1-0.2,0.3-0.3,0.4
		c-0.2,0.4-0.3,0.8-0.2,1.3c0,0.5,0.3,1.1,0.7,1.4c0.6,0.3,1.2,0.6,1.9,0.7c1.5,0.4,3,0.8,4.5,1.2c1.1,0.3,2.2,0.7,3.3,1
		c0.5,0.1,0.9,0.5,1,1c0.1,0.4,0.2,0.7,0.3,1.1c0.8,0.1,1.6,0.1,2.4,0.1c1,0,1.9-0.1,2.9-0.2c0-0.2,0.1-0.4,0.2-0.7
		C106.1,463,106.5,462.6,107,462.5z M106.6,429.7c2.7,0.5,2.2,3.8,2,4.5c0,0.2-0.1,0.3-0.1,0.5h-0.2c-1.7-0.3-3.4-0.1-4.9,0.5
		c-0.4,0-0.7,0-1.1,0c-1.6-0.6-3.3-0.7-4.9-0.5h-0.1c0-0.1,0-0.2,0-0.2C97,429.8,104.1,432.7,106.6,429.7L106.6,429.7z M107.8,436.7
		c-0.2,0.4-1.1,0.7-2.2,0.7c-0.9,0-1.4-0.2-1.5-0.4c-0.2-0.5-0.3-1.1-0.2-1.7c1.3-0.4,2.7-0.5,4-0.3
		C108.1,435.6,108.1,436.2,107.8,436.7L107.8,436.7z M101.6,437.1c-0.1,0.2-0.7,0.4-1.5,0.4c-1.1,0-2-0.3-2.2-0.7
		c-0.2-0.5-0.3-1.1-0.2-1.6c1.4-0.2,2.7-0.1,4,0.3C101.9,436,101.8,436.6,101.6,437.1L101.6,437.1z M97.1,438.2L97.1,438.2l-0.1-0.1
		l-0.2-0.2l0,0c-0.9-0.8-1.3-1.9-1.1-3.1c0.1-0.5,0.3-0.8,0.5-0.8s0.4,0.1,0.5,0.2c0,0.1,0,0.3,0,0.4s0,0.2,0,0.3c0,0.2,0,0.4,0,0.6
		c0,0.6,0,1.2,0.1,1.7l0.2,0.1c0.1-0.3,0.2-0.5,0.2-0.8c0.1,0.2,0.1,0.3,0.2,0.5c0.3,0.7,1.6,1,2.7,1c0.4,0,1.7,0,2-0.6
		c0.2-0.4,0.3-0.9,0.3-1.4c0.3,0,0.5,0,0.5,0s0.2,0,0.5,0c0,0.5,0.1,0.9,0.3,1.4c0.3,0.6,1.6,0.6,2,0.6c1,0,2.3-0.3,2.7-1
		c0.1-0.2,0.2-0.4,0.2-0.6c0.1,0.3,0.2,0.6,0.3,0.9h0.1c0-0.5,0-1.1,0.1-1.7c0-0.2,0-0.4,0-0.6c0-0.1,0-0.2,0-0.3c0-0.1,0-0.3,0-0.4
		c0.1-0.2,0.3-0.2,0.5-0.2c0.2,0.1,0.4,0.4,0.5,0.8c0.2,1.1-0.2,2.3-1.1,3.1l0,0l-0.2,0.2l-0.1,0.1l0,0c-0.1,1.7-0.8,3.2-1.9,4.4
		c-2.2,2.2-2.5,2.2-3.8,2.2s-1.7,0-3.8-2.2C98,441.4,97.3,439.9,97.1,438.2L97.1,438.2z M98.8,444.7c0.2-0.5,0.3-1,0.2-1.5l0,0
		c0.4,0.5,0.9,0.9,1.4,1.3c1.5,1,3.4,1,4.9,0c0.5-0.4,1-0.9,1.4-1.4c0,0.5,0,1,0.2,1.5c-0.7,1.2-2.3,1.8-4.1,2.2
		C101,446.5,99.5,445.9,98.8,444.7L98.8,444.7z M101.5,456c0.2-2.2,0.3-4.4,0.4-5.1c0.6,0.3,1.4,0.3,2,0c0,0.7,0.2,2.9,0.4,5.1
		H101.5z M103.8,450.4c-0.6,0.2-1.3,0.2-1.9,0c-0.3-0.7-0.5-1.5-0.6-2.3c0-0.9,3-0.9,3,0C104.3,448.9,104.1,449.7,103.8,450.4
		L103.8,450.4z"/>
	<path class="st0" d="M121.7,425.4c-4.8,0-8.6,2.9-8.6,6.5c0,1.6,0.7,3,1.9,4.1c-0.9,0.2-1.9,0.3-2.8,0.2c1.4,1.2,3.2,1.7,5,1.2
		c1.4,0.7,2.9,1,4.5,1c4.8,0,8.6-2.9,8.6-6.5S126.5,425.4,121.7,425.4z"/>
</g>
<path class="st0" d="M102.7,399.1c-30.5,0-55.2,24.7-55.2,55.2s24.7,55.2,55.2,55.2s55.2-24.7,55.2-55.2S133.2,399.1,102.7,399.1
	L102.7,399.1z M102.7,503.1c-26.9,0-48.8-21.8-48.8-48.8s21.8-48.8,48.8-48.8s48.8,21.8,48.8,48.8l0,0
	C151.5,481.2,129.6,503.1,102.7,503.1L102.7,503.1z"/>
<g>
	<path class="st0" d="M168.4,176.7c-30.5,0.4-54.8,25.5-54.4,56s25.5,54.8,56,54.4s54.8-25.5,54.4-56l0,0
		C223.9,200.5,198.8,176.2,168.4,176.7z M169.9,280.7c-26.9,0.4-49.1-21.1-49.5-48c-0.4-27,21.1-49.2,48-49.6
		c26.9-0.4,49.1,21.1,49.5,48l0,0C218.3,258.1,196.9,280.2,169.9,280.7L169.9,280.7z"/>
	<path class="st0" d="M165,253.5l-9.6-12.6c-0.9-0.9-0.9-2.4,0-3.3c0.9-0.9,2.4-0.9,3.3,0c0.1,0.1,0.3,0.3,0.4,0.5l6.8,8.8
		l28.4-22.1c1.1-0.7,2.5-0.5,3.3,0.6c0.7,1,0.5,2.3-0.4,3.1L165,253.5z"/>
	
		<rect x="160.8" y="220.9" transform="matrix(0.9999 -1.518240e-02 1.518240e-02 0.9999 -3.3572 2.5862)" class="st0" width="15.7" height="3"/>
	
		<rect x="154.8" y="229" transform="matrix(0.9999 -1.518240e-02 1.518240e-02 0.9999 -3.4805 2.5423)" class="st0" width="21.8" height="3"/>
	<polygon class="st0" points="182.8,257.1 148.6,257.7 148,218.1 160.3,217.9 160.1,206.2 160.2,206.2 182.1,205.9 182.4,228.5 
		186.8,224.1 186.5,201.9 158.1,202.3 144.3,215.3 145,261.9 187.4,261.3 187.1,245.2 182.7,249.8 	"/>
</g>
</svg>
