<?xml version="1.0" encoding="utf-8"?>
<!-- Generator: Adobe Illustrator 20.1.0, SVG Export Plug-In . SVG Version: 6.00 Build 0)  -->
<svg version="1.1" id="Layer_1" xmlns="http://www.w3.org/2000/svg" xmlns:xlink="http://www.w3.org/1999/xlink" x="0px" y="0px"
	 viewBox="0 0 1278.5 1180.9" style="enable-background:new 0 0 1278.5 1180.9;" xml:space="preserve">
<style type="text/css">
	.st0{fill:#BDBADE;}
	.st1{fill:#F29425;}
	.st2{fill:#191036;}
	.st3{fill:#FFFFFF;}
	.st4{fill:#B7B7B7;}
</style>
<title>global-business-expansion-services</title>
<g>
	<path class="st0" d="M203.2,623.5l-4-0.3c7.3-86.8,40.5-169.4,95.2-237.1l3.1,2.5C243.2,455.7,210.4,537.5,203.2,623.5z"/>
</g>
<g>
	<path class="st0" d="M645.2,1078.7c-63.1,0.2-125.5-13.5-182.8-39.9l1.7-3.6c128.1,58.7,276.8,51.7,398.8-18.9l2,3.5
		C798.1,1058.4,722.3,1078.7,645.2,1078.7z"/>
	<path class="st0" d="M424.3,1019.3l2.6-3.3c122,70.6,271.1,77.9,399.2,19.2l1.7,3.6c-57.3,26.4-119.7,40.1-182.8,39.9
		C567.9,1078.7,491,1057.9,424.3,1019.3z"/>
</g>
<g>
	<path class="st0" d="M356,314.2l-2.6-3C418.7,253.6,499.8,217,586.2,206l0.5,4C501.1,220.9,420.7,257.2,356,314.2z"/>
</g>
<g>
	<path class="st0" d="M938.7,323.6c-67.3-63.2-153-103.2-244.7-114.1l0.5-4c92.5,11,179,51.4,246.9,115.2L938.7,323.6z"/>
</g>
<g>
	<path class="st0" d="M334.3,950.7c-71.9-71.2-116.8-165.2-127-265.8l4-0.4c10.1,99.7,54.6,192.8,125.8,263.4L334.3,950.7
		L334.3,950.7z"/>
</g>
<g>
	<path class="st0" d="M1072.6,586.1c-8.5-67.8-33-132.7-71.3-189.3l3.3-2.2c38.7,57.1,63.4,122.6,72,191.1L1072.6,586.1z"/>
</g>
<g>
	<path class="st0" d="M950.7,950.7l-2.8-2.8c71.2-70.6,115.7-163.6,125.8-263.4l4,0.4C1067.4,785.5,1022.5,879.5,950.7,950.7
		L950.7,950.7z"/>
</g>
<path class="st1" d="M262,741.4L262,741.4z"/>
<circle class="st2" cx="967.2" cy="360.8" r="63.1"/>
<g>
	<path class="st0" d="M967.2,305.7c-30.4,0-55.1,24.7-55.1,55.1s24.7,55.1,55.1,55.1c30.4,0,55.1-24.7,55.1-55.1
		C1022.3,330.4,997.6,305.7,967.2,305.7z M967.2,409.5c-26.9,0-48.7-21.8-48.7-48.7s21.8-48.7,48.7-48.7s48.7,21.8,48.7,48.7
		S994.1,409.5,967.2,409.5z"/>
	<path class="st0" d="M954.9,377c3.5-0.4,6.9-0.7,10.4-0.8v7.8c1.2-0.7,2.3-1.5,3.3-2.4v-5.4c1.6,0,3.2,0.1,4.7,0.2
		c0.7-1,1.4-2.1,1.9-3.2c-2.1-0.2-4.3-0.3-6.6-0.3v-24.8c3.2-0.1,6.3-0.2,9.2-0.6l4.2-5c-1.1-3.3-2.8-6.5-5-9.2c3.1,1.2,6,2.9,8.6,5
		l2.6-3c-5.9-5-13.5-7.8-21.2-7.8l0,0c-18.2,0.1-32.9,14.9-32.8,33.2c0.1,11.8,6.4,22.6,16.6,28.5l5.9-1.6
		c-4.5-1.7-8.6-4.6-11.7-8.3c2.2-0.8,4.4-1.4,6.6-1.8c1.1,3.6,2.9,7,5.2,10l1.2-0.3c0.8-0.2,1.6-0.5,2.3-0.7
		C957.8,383.7,956,380.5,954.9,377z M968.6,331.6l0.8,0.1c3.9,1.4,7.4,6,9.6,12.4c-3.5,0.4-6.9,0.7-10.4,0.8L968.6,331.6
		L968.6,331.6z M965.3,357v1.9h-13c0.1-3.9,0.6-7.8,1.6-11.6c3.8,0.5,7.6,0.8,11.4,0.9V357z M964.5,331.7l0.8-0.1v13.3
		c-3.5-0.1-7-0.3-10.4-0.8C957.1,337.7,960.5,333.1,964.5,331.7L964.5,331.7z M942.8,376.6c-2.9-4.3-4.5-9.3-4.8-14.4h11
		c0.1,4.1,0.6,8.2,1.6,12.1C947.9,374.9,945.3,375.6,942.8,376.6L942.8,376.6z M949,358.9h-11c0.3-5.1,1.9-10.1,4.8-14.4
		c2.5,1,5.1,1.8,7.8,2.2C949.6,350.7,949.1,354.8,949,358.9z M944.9,341.8c3.2-3.8,7.3-6.7,12-8.4c-2.4,3-4.2,6.5-5.4,10.2
		C949.2,343.2,947,342.6,944.9,341.8L944.9,341.8z M952.3,362.2h13V373c-3.8,0.1-7.6,0.3-11.4,0.9C953,370,952.4,366.2,952.3,362.2
		L952.3,362.2z"/>
	<path class="st0" d="M989.8,339.7L972,360.6h9.7c0,14-9.4,26.2-22.9,29.9c16.5,4.5,33.6-5.3,38-21.8c0.7-2.6,1.1-5.4,1.1-8.1h9.7
		L989.8,339.7z"/>
</g>
<g>
	<circle class="st2" cx="381.9" cy="982.2" r="65.1"/>
	<path class="st0" d="M381.9,927.4c-30.3,0-54.8,24.6-54.8,54.8s24.6,54.8,54.8,54.8s54.8-24.6,54.8-54.8
		C436.7,951.8,412.2,927.4,381.9,927.4z M381.9,1030.7c-26.8,0-48.5-21.7-48.5-48.5s21.7-48.5,48.5-48.5s48.5,21.7,48.5,48.5
		C430.4,1009,408.7,1030.7,381.9,1030.7z M363.8,968.9l-2.4-3.1l-6.5,4.9l8.7,11.6l6.3,8.3l6.5-4.9L363.8,968.9z M357.1,961.5
		c-0.5,0-0.9,0.1-1.3,0.4l-3,2.3c-0.9,0.7-1.1,2.2-0.4,3.1l0,0l1.2,1.6l6.5-4.9l-1.2-1.6C358.4,961.8,357.7,961.5,357.1,961.5z
		 M400.3,956.2v-2.1c0-0.8-0.6-1.4-1.4-1.4s-1.4,0.6-1.4,1.4v2.1h-1.3v-2.1c0-0.8-0.6-1.4-1.4-1.4s-1.4,0.6-1.4,1.4v2.1H392v-2.1
		c0-0.8-0.6-1.4-1.4-1.4s-1.4,0.6-1.4,1.4v2.1h-1.4v-2.1c0-0.8-0.6-1.4-1.4-1.4s-1.4,0.6-1.4,1.4v2.1h-1.4v-2.1
		c0-0.8-0.6-1.4-1.4-1.4s-1.4,0.6-1.4,1.4v2.1h-1.4v-2.1c0-0.8-0.6-1.4-1.4-1.4s-1.4,0.6-1.4,1.4v2.1h-1.4v-2.1
		c0-0.8-0.6-1.4-1.4-1.4s-1.4,0.6-1.4,1.4v2.1h-2.1v-2.1c0-0.8-0.6-1.4-1.4-1.4s-1.4,0.6-1.4,1.4v2.1c-1.5,0.1-2.8,1.3-2.8,2.9v7.4
		l14.8,19.5l-8.7,6.7l-6-7.9v22.8c0,1.6,1.3,2.9,2.9,2.9h33.4c1.6,0,2.9-1.3,2.9-2.9v-48.5C403.1,957.5,401.9,956.3,400.3,956.2z
		 M370.4,993.3l8.6-6.5l0.8,9.7L370.4,993.3z"/>
</g>
<g>
	<circle class="st2" cx="207.2" cy="686" r="65"/>
	<path class="st0" d="M207.2,631c-30.4,0-55,24.6-55,55s24.6,55,55,55s55-24.6,55-55S237.6,631,207.2,631z M207.2,734.6
		c-26.9,0-48.6-21.8-48.6-48.6s21.8-48.6,48.6-48.6c26.9,0,48.6,21.8,48.6,48.6S234.1,734.6,207.2,734.6z M203.2,695.9
		c-0.1-0.5-0.6-0.9-1.1-1.1c-3.2-1.1-8.9-2.6-8.9-2.6c-0.2,0-0.3,0-0.5-0.1c-0.4,1-1.2,1.7-2.2,2c-1.2,0.5-2.5,0.7-3.8,0.7
		c-2.4,0-4.9-0.7-6-2.6c0,0,0,0,0-0.1c-0.2,0.1-0.3,0.1-0.5,0.1l0,0c0,0-5.7,1.5-8.9,2.6c-0.5,0.2-0.9,0.6-1.1,1.1
		c-0.3,0.6-0.8,4.7-1.1,7.4l0,0c3,5.1,9.8,8.6,17.6,8.6s14.6-3.5,17.6-8.6C204,700.7,203.6,696.6,203.2,695.9z M178.5,676.9
		c0.4-0.6,0.8-1.2,1.2-1.7c-0.5,1.6-0.6,3.4-0.3,5.1c-0.3,0.3-0.5,0.6-0.5,1c-0.3,1.4,0.3,2.9,1.4,3.8c0.2,1.3,0.6,2.5,1.2,3.6
		c0,0.1,0.1,0.2,0.2,0.2c0.5,0.7,0.5,1.7,0.1,2.4c-0.1,0.2-0.3,0.4-0.4,0.5l0,0c0.8,1.5,3,2.2,5.3,2.2c1.2,0,2.3-0.2,3.5-0.6
		c0.8-0.2,1.4-0.8,1.7-1.5c0,0,0-0.1,0.1-0.1c-0.2-0.2-0.3-0.3-0.4-0.5c-0.4-0.7-0.4-1.5,0-2.3c0.1-0.1,0.3-0.3,0.4-0.4
		c0.6-1.1,1-2.3,1.2-3.6c1.2-0.9,1.7-2.4,1.4-3.8c0-0.2-0.1-0.4-0.2-0.5c0.1-0.8,0.2-1.6,0.1-2.4l0,0c0-1.3-0.3-5-1.9-6.6l-0.3,0.8
		c-0.6-0.7-1.4-1.2-2.3-1.6l-0.2,0.8c-0.8-0.6-1.7-1.1-2.6-1.3l-0.1,0.6c-1-0.4-2.1-0.6-3.2-0.6l0.3,0.7c-1.2-0.5-2.5-0.5-3.7-0.1
		l1.8,1c-1.4-0.3-2.8,0.3-3.6,1.5l1.5-0.2C178.7,673.9,178,675.4,178.5,676.9z M182.4,691.6c0.2-0.5,0.3-1,0.2-1.5
		c0.5,0.5,0.9,1,1.5,1.4c1.6,1,3.6,1,5.1,0c0.5-0.4,1-0.9,1.4-1.4l0,0c-0.1,0.5,0,1,0.2,1.5C190.4,693.7,184,694.3,182.4,691.6z
		 M180.3,680.6c0,0.1,0,0.3,0,0.4c0,0.1,0,0.2,0,0.3c0,0.2,0,0.4,0,0.6c0,0.7,0,1.2,0.1,1.8h0.1c0.5-1,0.6-2.1,0.3-3.1l0,0l0,0
		c0-0.5,0-1.2,0-2c0.1-0.5,0.1-1,0.3-1.5c0.2-0.4,0.4-0.7,0.7-0.7c1.2,0,3.3,0.9,5,0.9s3.8-0.9,4.9-0.9c0.9,0,1,1.8,1,3.2
		c-0.1,0.4-0.1,0.8-0.2,1.2c-0.1,1,0,2,0.3,3l0.3-0.1c0-0.5,0-1.1,0.1-1.8c0-0.2,0-0.4,0-0.6c0-0.2,0-0.1,0-0.3s0-0.3,0-0.4
		c0.1-0.2,0.3-0.2,0.6-0.2c0.2,0.1,0.4,0.4,0.5,0.9c0.2,1.2-0.2,2.4-1.1,3.2l0,0l-0.2,0.2l-0.1,0.1l0,0c-0.1,1.7-0.8,3.3-1.9,4.6
		c-2.3,2.3-2.6,2.2-4,2.2s-1.7,0-4-2.2c-1.2-1.3-1.9-2.9-1.9-4.6l0,0l-0.1-0.1l-0.2-0.2l0,0c-0.9-0.8-1.3-2-1.1-3.2
		c0.1-0.5,0.3-0.8,0.5-0.9C180,680.3,180.2,680.4,180.3,680.6z M242.8,696.3c-0.2-0.5-0.5-0.8-1-1c-3-1-8.1-2.3-8.6-2.5l0,0
		c-0.6-0.1-1.2-0.4-1.5-1c-0.4-0.7-0.3-1.6,0.1-2.3c0.1-0.1,0.1-0.2,0.2-0.2c0.6-1,1-2.2,1.1-3.4c1.1-0.9,1.6-2.3,1.3-3.6
		c0-0.2-0.1-0.3-0.2-0.5c0.1-0.9,0.1-1.8,0-2.6c0.1-1.6-0.6-3-1.8-4c-0.3-1.6-2.4-2.7-5.5-2.7c-3.7,0-7.2,2.6-7.2,6.7
		c-0.1,0.9-0.1,1.8,0,2.7c-0.1,0.2-0.1,0.3-0.2,0.5c-0.3,1.4,0.3,2.8,1.3,3.6c0.2,1.2,0.6,2.3,1.2,3.4c0.1,0.1,0.2,0.3,0.3,0.4
		c0.3,0.7,0.3,1.5,0,2.1c-0.2,0.5-0.7,0.9-1.3,1l0,0h-0.2c-1,0.3-5.6,1.5-8.4,2.4c-0.5,0.1-0.9,0.5-1,1c-0.3,0.6-0.8,4.6-1.1,7.2
		c2.9,4.8,9.3,8.2,16.8,8.2s13.9-3.4,16.8-8.2C243.5,700.9,243.1,696.9,242.8,696.3z M223.1,690.7L223.1,690.7
		c0.4,0.5,0.9,0.9,1.4,1.3c1.5,0.9,3.4,0.9,4.9,0c0.5-0.4,1-0.9,1.4-1.3c0,0.5,0,1,0.2,1.5c-0.9,2.6-7.4,2.2-8.1,0
		C223.1,691.7,223.2,691.2,223.1,690.7L223.1,690.7z M225.1,688c1.2-0.3,2.4-0.3,3.6,0c0.3,0.2,0.7,1.2,0,1.4
		c-0.4,0.1-0.7,0.1-1.1,0c-0.3-0.1-0.3-0.3-0.7-0.3s-0.3,0.2-0.6,0.2c-0.4,0.1-0.8,0.1-1.3,0C224.5,689.2,224.9,688.2,225.1,688
		L225.1,688z M221.3,685.7L221.3,685.7L221.3,685.7l-0.3-0.3l0,0c-0.9-0.8-1.3-1.9-1.1-3c0.1-0.4,0.3-0.8,0.5-0.8s0.4,0,0.5,0.2
		c0,0.1,0,0.3,0,0.4c0,0.1,0,0.2,0,0.3c0,0.2,0,0.4,0,0.6c0,0.6,0,1.2,0.1,1.7l0.2,0.1c0.3-0.9,0.4-1.9,0.3-2.8
		c-0.3-9.6,6.8-1.7,9.2-4.7c2.6,0.5,2.1,3.8,2,4.4c-0.3,1-0.2,2.1,0.3,3h0.1c0-0.5,0.1-1,0.1-1.7c0-0.2,0-0.4,0-0.6
		c0-0.1,0-0.2,0-0.3s0-0.3,0-0.4c0.1-0.2,0.3-0.2,0.5-0.2c0.2,0.1,0.4,0.4,0.5,0.8c0.2,1.1-0.2,2.3-1.1,3.1l0,0l-0.2,0.2l-0.1,0.1
		l0,0c-0.1,1.6-0.7,3.2-1.8,4.4l-0.4,0.4v-1.5c0,0,0-2-3.2-2s-3.3,2-3.3,2v1.7l-0.6-0.6C222.1,689,221.4,687.4,221.3,685.7
		L221.3,685.7z M211.5,694.2c2.6-0.9,7.1-2.1,8-2.3h0.2l0,0c0.5-0.1,1-0.4,1.3-0.9c0.3-0.6,0.3-1.4,0-2c-0.1-0.1-0.2-0.2-0.3-0.4
		c-0.6-1-0.9-2.1-1.1-3.2c-1-0.8-1.5-2.1-1.3-3.4c0-0.2,0.1-0.3,0.2-0.5c-0.1-0.8-0.1-1.7,0-2.5c0-0.1,0-0.2,0-0.4
		c-2.5-0.7-4.8-1.3-4.8-1.3l0,0c-0.6-0.1-1.2-0.4-1.5-1c-0.4-0.7-0.3-1.6,0.1-2.3c0.1-0.1,0.1-0.2,0.2-0.2c0.6-1.1,1-2.2,1.2-3.4
		c1.1-0.9,1.6-2.3,1.4-3.7c0-0.2-0.1-0.3-0.2-0.5c0.1-0.9,0.1-1.8,0-2.6c0.1-1.6-0.6-3-1.8-4c-0.3-1.6-2.4-2.7-5.6-2.7
		c-3.8,0-7.2,2.6-7.2,6.7c-0.1,0.9-0.1,1.8,0,2.7c-0.1,0.2-0.1,0.3-0.2,0.5c-0.3,1.4,0.3,2.8,1.4,3.7c0.2,1.2,0.6,2.4,1.2,3.4
		c0.1,0.1,0.2,0.3,0.3,0.4c0.3,0.7,0.3,1.5,0,2.2c-0.3,0.6-0.9,1-1.5,1c0,0-2.3,0.6-4.8,1.3c0,0.6,0,1.2-0.1,1.8
		c0.1,0.2,0.1,0.3,0.2,0.5c0.3,1.4-0.3,2.8-1.3,3.6c-0.2,1.2-0.5,2.3-1.1,3.4c-0.1,0.1-0.2,0.3-0.3,0.4c-0.2,0.4-0.3,0.8-0.2,1.3
		c0,0.5,0.3,1.1,0.7,1.4c0.6,0.3,1.2,0.6,1.9,0.7c1.5,0.4,3,0.8,4.4,1.2c1.1,0.3,2.2,0.7,3.3,1c0.5,0.1,0.9,0.5,1,1
		c0.1,0.4,0.2,0.7,0.3,1.1c0.8,0.1,1.6,0.1,2.4,0.1c1,0,1.9-0.1,2.9-0.2c0-0.2,0.1-0.4,0.2-0.6C210.6,694.7,211,694.3,211.5,694.2z
		 M211.1,661.5c2.7,0.5,2.1,3.8,2,4.5c0,0.2-0.1,0.3-0.1,0.5h-0.2c-1.7-0.3-3.3-0.1-4.9,0.5c-0.4,0-0.7,0-1.1,0
		c-1.6-0.6-3.3-0.7-4.9-0.5h-0.1c0-0.1,0-0.2,0-0.2C201.5,661.5,208.6,664.5,211.1,661.5L211.1,661.5z M212.3,668.5
		c-0.2,0.4-1.1,0.7-2.2,0.7c-0.9,0-1.4-0.2-1.5-0.4c-0.2-0.5-0.3-1.1-0.2-1.7c1.3-0.4,2.7-0.5,4-0.3
		C212.6,667.4,212.6,668,212.3,668.5L212.3,668.5z M206.1,668.8c-0.1,0.2-0.7,0.4-1.5,0.4c-1.1,0-2-0.3-2.2-0.7
		c-0.2-0.5-0.3-1.1-0.2-1.6c1.3-0.2,2.7-0.1,4,0.3C206.4,667.7,206.3,668.3,206.1,668.8L206.1,668.8z M201.7,669.9L201.7,669.9
		L201.7,669.9l-0.3-0.3l0,0c-0.9-0.8-1.3-1.9-1.1-3.1c0.1-0.5,0.3-0.8,0.5-0.8s0.4,0.1,0.5,0.2c0,0.1,0,0.3,0,0.4c0,0.1,0,0.2,0,0.3
		c0,0.2,0,0.4,0,0.6c0,0.6,0,1.2,0.1,1.7l0.2,0.1c0.1-0.3,0.2-0.5,0.2-0.8c0.1,0.2,0.1,0.3,0.2,0.5c0.3,0.7,1.6,1,2.7,1
		c0.4,0,1.7,0,2-0.6c0.2-0.4,0.3-0.9,0.3-1.3c0.3,0,0.5,0,0.5,0s0.2,0,0.5,0c0,0.5,0.1,0.9,0.3,1.3c0.3,0.6,1.6,0.6,2,0.6
		c1,0,2.3-0.3,2.7-1c0.1-0.2,0.2-0.4,0.2-0.6c0.1,0.3,0.2,0.6,0.3,0.9h0.1c0-0.5,0.1-1.1,0.1-1.7c0-0.2,0-0.4,0-0.6
		c0-0.1,0-0.2,0-0.3s0-0.3,0-0.4c0.1-0.2,0.3-0.2,0.5-0.2c0.2,0.1,0.4,0.4,0.5,0.8c0.2,1.1-0.2,2.3-1.1,3.1l0,0l-0.2,0.2l-0.1,0.1
		l0,0c-0.1,1.6-0.8,3.2-1.9,4.4c-2.2,2.2-2.5,2.2-3.8,2.2s-1.7,0-3.8-2.2C202.5,673.2,201.8,671.6,201.7,669.9L201.7,669.9z
		 M203.3,676.4c0.2-0.5,0.3-1,0.2-1.5l0,0c0.4,0.5,0.9,0.9,1.4,1.3c1.5,0.9,3.4,0.9,4.9,0c0.5-0.4,1-0.9,1.4-1.3c0,0.5,0,1,0.2,1.5
		c-0.7,1.2-2.3,1.8-4.1,2.2C205.6,678.2,204,677.6,203.3,676.4L203.3,676.4z M206,687.7c0.2-2.2,0.3-4.3,0.4-5c0.6,0.3,1.4,0.3,2,0
		c0,0.7,0.2,2.9,0.4,5H206z M208.3,682.1c-0.6,0.2-1.3,0.2-1.9,0c-0.3-0.7-0.5-1.5-0.6-2.3c0-0.9,3-0.9,3,0
		C208.8,680.6,208.6,681.4,208.3,682.1L208.3,682.1z M226.2,657.1c-4.7,0-8.6,2.9-8.6,6.5c0,1.6,0.7,3,1.9,4.1
		c-0.9,0.2-1.8,0.3-2.8,0.2c1.4,1.2,3.2,1.7,5,1.2c1.4,0.6,2.9,1,4.5,1c4.7,0,8.6-2.9,8.6-6.5C234.7,660,230.9,657.1,226.2,657.1z"
		/>
</g>
<path class="st0" d="M921.9,989.2c-0.1,0.3-0.2,0.6-0.2,0.9l-0.5,1.5h1.5l-0.5-1.5C922,989.8,921.9,989.5,921.9,989.2z"/>
<circle class="st2" cx="1071.8" cy="636.7" r="64.9"/>
<path class="st0" d="M1071.8,581.8c-30.4,0-55.1,24.6-55.1,55.1s24.6,55.1,55.1,55.1s55.1-24.6,55.1-55.1S1102.2,581.8,1071.8,581.8
	z M1071.8,685.4c-26.9,0-48.6-21.8-48.6-48.6s21.8-48.6,48.6-48.6c26.8,0,48.6,21.8,48.6,48.6
	C1120.4,663.6,1098.6,685.4,1071.8,685.4z M1071.1,602.9c-18.3,0-33.1,14.8-33.1,33.1s14.8,33.1,33.1,33.1h1.4v-2.7h0.1V637
	c10.6,0,21.4,0,28.6,0l0,0h3c0-0.5,0-0.7,0-1.2C1104.1,617.7,1089.3,602.9,1071.1,602.9z M1094.2,616.9c-2.5,0.9-5,1.7-7.4,2.2
	c-2-6-4.9-9.7-7.7-12C1085.1,608.8,1090.4,612.3,1094.2,616.9z M1084.4,619.6c-4.1,0.8-8.1,1.1-11.9,1.1v-14.5
	C1074.8,606.9,1081,609.7,1084.4,619.6z M1055.9,637.1c4.3,0,9.2,0,14.1,0v11.2c-4.1,0-8.3,0.4-12.4,1.2
	C1056.8,646.1,1056.1,642,1055.9,637.1z M1070.1,634.7c-5.7,0-10.4,0-14.2,0c0.1-5.2,0.7-9.4,1.7-12.9c4.1,0.8,8.3,1.3,12.6,1.4
	L1070.1,634.7L1070.1,634.7z M1070.1,606.1v14.6c-4.4-0.1-8.4-0.6-11.8-1.3C1061.7,609.5,1067.8,606.8,1070.1,606.1z M1063.7,607
	c-2.7,2.3-5.8,6-7.8,12c-3.5-0.8-6.3-1.7-7.8-2.2C1052.1,612,1057.5,608.6,1063.7,607z M1046.6,618.8c2.8,1,5.7,1.9,8.6,2.6
	c-1,3.6-1.7,8.1-1.7,13.4c-7,0-10.5,0-12.4,0.1C1041.4,628.8,1043.4,623.3,1046.6,618.8z M1053.5,637.1c0.2,5.1,0.8,9.3,1.9,12.9
	c-3.1,0.7-6.2,1.7-9.1,2.7c-3-4.5-4.9-9.8-5.1-15.6C1043.3,637.1,1047.8,637.1,1053.5,637.1z M1047.7,654.8c2.7-1,5.5-1.9,8.3-2.6
	c2.7,7.9,7.2,11.6,10.4,13.4C1058.9,664.4,1052.3,660.5,1047.7,654.8z M1058.5,651.8c3.8-0.7,7.8-1.1,11.6-1.1v13.8
	C1067.9,663.8,1061.9,661.1,1058.5,651.8z M1072.5,623.1c4.2,0,8.4-0.4,12.6-1.2c1,3.4,1.6,7.7,1.7,12.8c-5.3,0-10,0-14.2,0
	L1072.5,623.1L1072.5,623.1z M1089.2,634.7c-0.1-5.3-0.7-9.6-1.7-13.3c2.7-0.7,5.5-1.5,8.2-2.5c3.1,4.5,5.1,9.9,5.3,15.8
	C1096.8,634.8,1092.9,634.7,1089.2,634.7z M1074.4,639.3v29.6c15.6-1.6,28-13.9,29.6-29.6H1074.4z M1081,650.1h-0.7l-1.6-4.9h0.7
	l0.8,2.5c0.2,0.7,0.4,1.3,0.5,1.9c0.1-0.6,0.3-1.2,0.6-1.9l0.8-2.5h0.7L1081,650.1z M1083.9,650h-0.7v-4.9h0.7V650z M1086.1,650.2
	c-0.5,0-0.9-0.1-1.3-0.3l0.2-0.6c0.4,0.2,0.8,0.3,1.2,0.3c0.7,0,1-0.3,1-0.9c0-0.6-0.3-0.7-1-1s-1.3-0.7-1.3-1.4
	c0-0.8,0.7-1.4,1.5-1.4h0.1c0.4,0,0.8,0.1,1.1,0.2l-0.2,0.5c-0.3-0.2-0.7-0.2-1-0.2c-0.7,0-1,0.4-1,0.8c0,0.4,0.3,0.7,1,1
	c0.8,0.3,1.3,0.7,1.3,1.5C1087.6,649.5,1087.2,650.2,1086.1,650.2z M1091.8,650.1l-0.5-1.6h-1.8l-0.5,1.6h-0.7l1.7-4.9h0.8l1.7,4.9
	H1091.8z"/>
<g>
	<circle class="st2" cx="903.1" cy="980" r="65.2"/>
	<g>
		<path class="st0" d="M903.1,945.1c-19.2,0-34.9,15.6-34.9,34.9c0,19.2,15.6,34.9,34.9,34.9h1.5v-2.7v-0.5v-30.3
			c11.1,0,22.6,0,30.1,0l0,0h3.2c0-0.5,0-0.7,0-1.3C937.9,960.7,922.2,945.1,903.1,945.1z M927.5,960.1c-2.6,1-5.2,1.8-7.9,2.3
			c-2.1-6.5-5.2-10.4-8.2-12.8C917.8,951.3,923.4,955.1,927.5,960.1z M917.2,962.9c-4.4,0.8-8.7,1.2-12.7,1.2v-15.5
			C906.7,949.3,913.5,952.1,917.2,962.9z M887,981.2c4.5,0,9.6,0,15,0v11.9c-4.4,0-8.7,0.5-13,1.3C888,990.7,887.2,986.4,887,981.2z
			 M902,978.6c-6,0-10.9,0-14.9,0c0.1-5.5,0.7-9.9,1.8-13.6c4.3,0.8,8.7,1.4,13.1,1.5L902,978.6L902,978.6z M902,964.1
			c-4.6-0.1-8.8-0.6-12.4-1.4c3.6-10.3,9.9-13.2,12.4-14V964.1z M895.5,949.3c-3,2.3-6.3,6.3-8.4,12.9c-3.9-0.8-6.7-1.8-8.3-2.4
			C883,954.7,888.9,951,895.5,949.3z M877.1,961.9c3,1.1,6.1,2,9.2,2.7c-1.1,3.9-1.7,8.5-1.8,14c-7.5,0-11.2,0-13.1,0.1
			C871.8,972.5,873.8,966.7,877.1,961.9z M884.5,981.2c0.2,5.5,0.8,9.9,2,13.6c-3.2,0.7-6.4,1.7-9.5,3c-3.2-4.7-5.2-10.4-5.5-16.6
			C873.8,981.2,878.5,981.2,884.5,981.2z M878.5,999.8c2.9-1.1,5.8-1.9,8.7-2.6c3,8.1,7.5,12.1,10.9,13.9
			C890.2,1009.9,883.3,1005.7,878.5,999.8z M889.7,996.7c4-0.7,8.2-1.2,12.3-1.2v14.6C899.7,1009.4,893.4,1006.6,889.7,996.7z
			 M904.5,966.5c4.5,0,9-0.4,13.3-1.4c1,3.7,1.7,8.1,1.7,13.4c-5.7,0-10.7,0-15.1,0L904.5,966.5L904.5,966.5L904.5,966.5z
			 M922.1,978.6c-0.1-5.6-0.7-10.2-1.8-13.9c3-0.6,5.9-1.6,8.7-2.6c3.2,4.7,5.2,10.5,5.6,16.6C930.1,978.6,926,978.6,922.1,978.6z
			 M915.4,992c0,0.4,0.3,0.6,0.7,1v-1.6C915.7,991.4,915.4,991.7,915.4,992z M918.3,997.7v1.9c0.6-0.1,1-0.5,1-1
			C919.2,998.2,918.8,997.8,918.3,997.7z M906.6,983.4v31.2c16.5-1.7,29.4-14.7,31.1-31.2H906.6L906.6,983.4z M917,1002.9
			c-3.8,0-6.3-2.2-6.4-4.7h4.5c0.1,0.4,0.3,0.8,0.7,1.2c0.1,0,0.2,0.1,0.3,0.1v-2.4c-2.4-0.5-5.2-1.4-5.2-4.6c0-3,2.6-4.5,6.2-4.5
			c4,0,5.9,2,6.2,4.5h-4.5c0-0.4-0.3-0.7-0.6-1v2c2.4,0.5,5.5,1.3,5.5,4.5S921,1002.9,917,1002.9z M903.1,922.1
			c-32,0-57.9,25.9-57.9,57.9s25.9,57.9,57.9,57.9S961,1012,961,980C960.9,948,935.1,922.1,903.1,922.1L903.1,922.1z M903.1,1031.2
			c-28.2,0-51.2-23-51.2-51.2s23-51.2,51.2-51.2s51.1,22.9,51.2,51.2C954.3,1008.3,931.4,1031.1,903.1,1031.2
			C903.2,1031.2,903.1,1031.2,903.1,1031.2z"/>
	</g>
</g>
<g>
	<circle class="st2" cx="640" cy="206.4" r="65.2"/>
	<path class="st0" d="M639.9,148.5c-32,0-57.9,25.9-57.9,57.9s25.9,57.9,57.9,57.9s57.9-25.9,57.9-57.9
		C697.8,174.5,671.9,148.5,639.9,148.5z M639.9,257.6L639.9,257.6c-28.2,0-51.2-22.9-51.2-51.2s22.9-51.2,51.2-51.2
		s51.2,22.9,51.2,51.2C691.1,234.8,668.1,257.6,639.9,257.6z M639.2,171.7c-18.6,0-33.6,15.1-33.6,33.6c0,18.2,14.5,33.1,32.6,33.6
		l0,0l0,0c0.3,0,0.6,0,1,0h1.5l0,0l0,0v-32.4c10.7,0,21.7,0,28.9,0l0,0h3.1c0-0.4,0-0.7,0-1.2C672.8,186.7,657.7,171.7,639.2,171.7z
		 M626.5,221.2c4.1-0.8,8.1-1.1,11.9-1.2v14.2C636,233.6,629.9,230.9,626.5,221.2z M638.3,175v14.8c-4.5-0.1-8.6-0.6-12.1-1.3
		C629.8,178.5,636,175.7,638.3,175z M638.3,192.3v11.8c-5.8,0-10.6,0-14.5,0c0.1-5.2,0.7-9.5,1.7-13.1
		C629.2,191.6,633.5,192.1,638.3,192.3z M638.3,206.5v11.3c-4,0-8.2,0.4-12.6,1.3c-1-3.3-1.7-7.6-1.8-12.6
		C628.3,206.5,633.2,206.5,638.3,206.5z M631.8,175.8c-2.9,2.3-5.9,6.1-8,12.1c-3.7-0.8-6.4-1.7-8-2.3
		C619.9,181,625.5,177.4,631.8,175.8z M614.3,187.8c1.4,0.5,4.5,1.6,8.8,2.5c-1,3.8-1.6,8.2-1.7,13.6c-7.1,0-10.7,0-12.6,0
		C609,197.9,611.1,192.4,614.3,187.8z M614,222.3c-3-4.6-4.9-10-5.1-15.8c2.2,0,6.8,0,12.6,0c0.1,5.1,0.8,9.4,1.8,13
		C620.2,220.2,617.1,221.1,614,222.3z M615.5,224.4c2.9-1.1,5.7-1.9,8.5-2.5c2.9,8,7.3,11.8,10.6,13.6
		C626.9,234.3,620.1,230.2,615.5,224.4z M662.7,185.9c-2.5,1-5,1.6-7.5,2.2c-2-6.1-5-9.9-7.7-12.1
		C653.6,177.7,658.8,181.2,662.7,185.9z M640.7,175c2.3,0.7,8.6,3.6,12.1,13.6c-4.2,0.8-8.3,1.2-12.1,1.2V175z M640.7,192.3
		c4,0,8.3-0.4,12.8-1.3c1,3.5,1.6,7.7,1.7,13c-5.5,0-10.2,0-14.5,0V192.3L640.7,192.3z M657.6,204c-0.1-5.4-0.7-9.8-1.7-13.6
		c2.7-0.6,5.6-1.5,8.3-2.5c3.2,4.6,5.1,10.1,5.4,16.1C665.4,204,661.3,204,657.6,204z M642.6,208.6v30c15.8-1.6,28.4-14.3,29.9-30
		H642.6z M658.5,210.6L658.5,210.6L658.5,210.6c0.2,0,0.3,0,0.3,0h0.1c0.5,0.1,0.8,0.4,1.2,0.8c0.1,0.2,0.1,0.4,0.1,0.6
		c0,0.7-0.5,1.3-1.2,1.5c-0.8,0.2-1.8-0.3-1.9-1.2C657,211.6,657.6,210.9,658.5,210.6z M648.8,210.6L648.8,210.6L648.8,210.6
		c0.2,0,0.3,0,0.3,0h0.1c0.5,0.1,0.8,0.4,1.2,0.8c0.1,0.2,0.1,0.4,0.1,0.6c0,0.7-0.5,1.3-1.2,1.5c-0.8,0.2-1.8-0.3-1.9-1.2
		C647.5,211.6,648.1,210.9,648.8,210.6z M653,220.2C653,220.2,652.9,220.3,653,220.2c0,0.2-0.1,0.4-0.3,0.5
		c-0.1,0.1-0.3,0.1-0.5,0.1s-0.4-0.2-0.5-0.4c0-0.1,0-0.2,0-0.3c0-1.6,0-1.4,0-3l0,0l0,0c-0.1,0-0.3,0-0.5,0c0,0,0,0,0,0.1
		c0,3.2,0,4.3,0,10.3c0,0,0,0,0,0.1s0,0.1,0,0.1c-0.1,0.3-0.3,0.5-0.6,0.6h-0.2c0,0-0.1,0-0.2,0c-0.1,0,0,0-0.1,0
		c-0.2,0-0.4-0.2-0.5-0.3s-0.1-0.3-0.1-0.4c0-0.3,0-0.4,0-0.4l0,0c0-1.4,0-4,0-5.4c0,0,0,0,0-0.1c-0.2,0-0.4,0-0.6,0c0,0,0,0,0,0.1
		c0,2.5,0,3.2,0,5.8c0,0,0,0,0,0.1c0,0.4-0.2,0.7-0.6,0.8c0,0,0,0-0.1,0c0,0-0.1,0-0.2,0c-0.1,0,0,0-0.1,0c-0.3,0-0.5-0.2-0.6-0.5
		c0-0.1,0-0.2,0-0.3c0-6,0-7,0-10.3l0,0l0,0c-0.1,0-0.3,0-0.5,0c0,0,0,0,0,0.1c0,1.6,0,1.4,0,3v0.1c0,0.1,0,0.3-0.1,0.4
		c-0.1,0.2-0.4,0.3-0.6,0.2c-0.3,0-0.5-0.2-0.6-0.5l0,0c0-2.2,0-2.5,0-4.7l0,0c0-0.1,0.1-0.3,0.1-0.5c0.3-0.4,0.7-0.7,1.3-0.7
		c1.6,0,3.2,0,4.9,0c0.2,0,0.4,0,0.6,0.1c0.4,0.2,0.7,0.5,0.8,1v0.1C653,217.7,653,218.1,653,220.2z M662.6,220.2
		C662.6,220.2,662.6,220.3,662.6,220.2c0,0.2-0.1,0.4-0.3,0.5c-0.1,0.1-0.3,0.1-0.5,0.1s-0.4-0.2-0.5-0.4c0-0.1,0-0.2,0-0.3
		c0-1.6,0-1.4,0-3l0,0l0,0c-0.1,0-0.3,0-0.5,0c0,0,0,0,0,0.1c0,3.2,0,4.3,0,10.3c0,0,0,0,0,0.1s0,0.1,0,0.1
		c-0.1,0.3-0.3,0.5-0.6,0.6h-0.1c0,0-0.1,0-0.2,0c0,0,0,0-0.1,0c-0.2,0-0.4-0.2-0.5-0.3s-0.1-0.3-0.1-0.4c0-0.3,0-0.4,0-0.4l0,0
		c0-1.4,0-4,0-5.4c0,0,0,0,0-0.1c-0.2,0-0.4,0-0.6,0c0,0,0,0,0,0.1c0,2.5,0,3.2,0,5.8c0,0,0,0,0,0.1c0,0.4-0.2,0.7-0.6,0.8
		c0,0,0,0-0.1,0c0,0-0.1,0-0.2,0c0,0,0,0-0.1,0c-0.3,0-0.5-0.2-0.6-0.5c0-0.1,0-0.2,0-0.3c0-6,0-7,0-10.3l0,0l0,0
		c-0.1,0-0.3,0-0.5,0c0,0,0,0,0,0.1c0,1.6,0,1.4,0,3v0.1c0,0.1,0,0.3-0.1,0.4c-0.1,0.2-0.4,0.3-0.6,0.2c-0.3,0-0.5-0.2-0.6-0.5l0,0
		c0-2.2,0-2.5,0-4.7l0,0c0-0.1,0.1-0.3,0.1-0.5c0.3-0.4,0.7-0.7,1.3-0.7c1.6,0,3.2,0,4.9,0c0.2,0,0.4,0,0.6,0.1
		c0.4,0.2,0.7,0.5,0.8,1v0.1C662.6,217.7,662.6,218.1,662.6,220.2z"/>
</g>
<path class="st1" d="M262,741.4L262,741.4z"/>
<circle class="st3" cx="299.7" cy="348.1" r="100"/>
<path class="st4" d="M299.7,262c-47.6,0-86.1,38.5-86.1,86.1s38.5,86.1,86.1,86.1s86.1-38.5,86.1-86.1
	C385.8,300.6,347.3,262,299.7,262z M299.7,424.2c-42,0-76.1-34.1-76.1-76.1s34.1-76.1,76.1-76.1s76.1,34.1,76.1,76.1
	S341.8,424.2,299.7,424.2z M292.7,381.7L278,361.8c-1.3-1.6-1-3.9,0.6-5.1c1.6-1.3,3.9-1,5.1,0.6c0.1,0.1,0.1,0.1,0.1,0.1l10.4,14
	l44.8-33.9c1.6-1.2,3.9-0.9,5.1,0.7c1.2,1.6,0.9,3.9-0.7,5.1L292.7,381.7z M293.5,339.8h11.8v2.2h-11.8V339.8L293.5,339.8z
	 M288.9,345.9h16.4v2.2h-16.4V345.9z M320.4,387.9H267v-61.8h19.2V308l0.1-0.1h34.1v35.3l7-6.8v-34.6h-44.3l-21.8,19.9v72.8h66.1
	v-25.1l-7,7L320.4,387.9L320.4,387.9z"/>
</svg>
