<?xml version="1.0" encoding="utf-8"?>
<!-- Generator: Adobe Illustrator 21.0.0, SVG Export Plug-In . SVG Version: 6.00 Build 0)  -->
<svg version="1.1" id="Layer_1" xmlns="http://www.w3.org/2000/svg" xmlns:xlink="http://www.w3.org/1999/xlink" x="0px" y="0px"
	 viewBox="0 0 500 155.8" enable-background="new 0 0 500 155.8" xml:space="preserve">
<path d="M247.3,29.5c19.8,0,39.5,0,59.3,0c0,18.8,0,37.6,0,56.4c0,3.7,0,7.3,0,11c0.1,4,2.1,6.4,5.9,7.2c6.9,1.5,12-2.6,12-9.7
	c0-20.7,0-41.5,0-62.2c0-0.9,0.1-1.9,0.2-2.8c10.5,0,21.1,0,31.6,0c0,27.2,0.1,54.3,0,81.5c0,4.4,1.2,7.9,4.4,10.9
	c1.2,1.1,2.2,2.4,3.4,3.7c-0.5,0.2-0.7,0.3-0.9,0.3c-10.2,0-20.4,0.1-30.6,0c-2.9,0-4.8-1.8-5.8-4.5c-0.4-1-0.6-2-1-3.2
	c-3.7,4.9-8.5,7.1-14.2,7.8c-3.1,0.3-6.3,0.3-9.4,0.3c-10.1,0-19.2-2.2-25.1-11.7c-3.8,5.6-9.3,8.4-15.5,9.6
	c-4.4,0.9-8.8,1.5-13.3,1.6c-14.6,0.2-29.2,0.1-43.8,0.2c-1.3,0-1.8-0.4-2.1-1.7c-1.1-4.9-2.4-9.7-3.6-14.5
	c-0.2-0.9-0.4-1.6-1.6-1.6c-8.7,0-17.4,0-26,0.1c-0.5,0-1.3,0.7-1.5,1.3c-0.6,1.6-0.9,3.4-1.3,5c-0.9,3.8-1.8,7.6-2.8,11.3
	c-10,0-19.7,0-29.5,0c0.2-0.9,0.4-1.8,0.6-2.6c6.5-26,13-51.9,19.5-77.9c1-4.2,0.3-7.9-2.8-11.1c-0.9-1-1.9-1.9-2.7-2.9
	c-0.4-0.5-0.7-1.2-1-1.8c19.4,0,38.7,0,58.1,0c2.9,1.3,4.5,3.5,5,6.6c0.5,2.5,1.2,5,1.9,7.5c0.2,0.6,0.4,1.1,0.7,2.1
	c4.1-9,11.4-12.9,20.2-14.6C239.4,30.3,243.4,30,247.3,29.5z M283.5,75.6c0-0.2,0-0.4-0.1-0.6c6.4-1.7,12.8-3.3,19.2-5
	c-0.1-0.3-0.1-0.6-0.2-0.9c-6.7,0.4-13.4,0.8-20.1,1.2c0-0.2-0.1-0.3-0.1-0.5c6-2.6,12-5.3,18-7.9c-0.1-0.3-0.2-0.6-0.3-0.8
	c-6.6,1.4-13.1,2.9-19.7,4.3c-0.1-0.2-0.1-0.3-0.2-0.5c5.4-3.6,10.9-7.1,16.3-10.7c-0.1-0.3-0.3-0.5-0.4-0.8
	c-6.2,2.5-12.5,4.9-18.7,7.4c-0.1-0.1-0.2-0.3-0.2-0.4c4.7-4.4,9.3-8.7,14-13.1c-0.2-0.2-0.4-0.5-0.6-0.7
	c-5.6,3.4-11.2,6.7-16.7,10.1c-0.1-0.2-0.3-0.3-0.4-0.5c3.7-5,7.5-9.9,11.2-14.9c-0.2-0.2-0.5-0.4-0.7-0.6
	c-4.9,4.2-9.8,8.4-14.7,12.7c-0.1-0.1-0.2-0.2-0.4-0.3c2.7-5.5,5.4-11,8.1-16.5c-0.2-0.1-0.5-0.3-0.7-0.4c-0.5,0.5-1.1,1.1-1.6,1.6
	c-3.2,3.9-6.4,7.8-9.6,11.8c-0.9,1.2-1.8,1.7-3.3,1c-1.2-0.6-2.7-0.9-4-1.1c-5-0.9-10.1-1.4-15,0.7c-3.8,1.6-5.5,5.5-3.7,8.9
	c0.8,1.5,2.1,2.9,3.5,3.7c3.3,1.8,6.8,3.3,10.3,4.8c5.5,2.5,11.2,4.7,16.5,7.6c5.7,3.1,9.6,7.9,11.4,14.3c0.2,0.7,1.2,1.4,1.9,1.6
	c5.1,1.3,10.3,2.4,15.4,3.5c0.6,0.1,1.3,0.1,2,0.2c0-0.2,0.1-0.4,0.1-0.6c-6-2.7-12-5.3-18.1-8c0-0.2,0.1-0.3,0.1-0.5
	c6.7,0.4,13.4,0.8,20.1,1.2c0-0.3,0.1-0.6,0.1-0.8c-6.4-1.7-12.8-3.4-19.2-5c0-0.2,0.1-0.4,0.1-0.6c3.4-0.3,6.8-0.6,10.1-0.9
	c3.2-0.3,6.5-0.7,9.7-1c0-0.3,0-0.6-0.1-0.8C296.7,76.9,290.1,76.3,283.5,75.6z M222.4,119.5c0.4,0.3,0.7,0.5,1.1,0.8
	c0.4-0.7,0.7-1.4,1.2-2c3-3.8,6.2-7.5,9.2-11.4c1.1-1.4,2-1.8,3.8-1.1c5.4,2.1,10.9,1.9,16.1-0.7c5.1-2.6,6-8.3,1.6-12
	c-2.3-2-5.2-3.4-8.1-4.6c-4.7-2-9.5-3.4-14.2-5.3c-6.4-2.5-12.1-5.9-15.9-11.9c-0.3-0.5-1.2-0.8-1.8-0.9c-5.5-0.4-11-0.8-16.6-1.2
	c-0.6,0-1.2,0.1-1.9,0.1c0,0.2-0.1,0.5-0.1,0.7c6.4,1.7,12.9,3.4,19.3,5.1c0,0.2-0.1,0.3-0.1,0.5c-6.6,0.7-13.3,1.3-19.9,2
	c0,0.3,0,0.6,0,0.9c6.6,0.7,13.3,1.3,19.9,2c0,0.2,0,0.4,0,0.5c-6.4,1.7-12.8,3.3-19.2,5c0,0.3,0.1,0.6,0.1,0.8
	c6.7-0.4,13.3-0.8,20-1.2c0,0.2,0.1,0.4,0.1,0.5c-6,2.6-11.9,5.3-17.9,7.9c0.1,0.3,0.2,0.5,0.3,0.8c6.5-1.4,13-2.8,19.5-4.3
	c0.1,0.2,0.1,0.3,0.2,0.5c-5.4,3.5-10.7,7.1-16.1,10.6c0.1,0.3,0.3,0.5,0.4,0.8c6.2-2.4,12.4-4.9,18.6-7.3c0.1,0.1,0.2,0.3,0.3,0.4
	c-4.7,4.4-9.3,8.7-14,13.1c0.2,0.3,0.4,0.5,0.5,0.8c5.6-3.4,11.2-6.8,16.9-10.1c0.1,0.1,0.2,0.3,0.4,0.4c-3.7,5-7.5,10-11.2,14.9
	c0.2,0.2,0.5,0.4,0.7,0.7c4.9-4.2,9.7-8.4,14.6-12.6c0.1,0.1,0.3,0.2,0.4,0.3C227.7,108.5,225,114,222.4,119.5z M174.3,90.4
	c6.7,0,13,0,19.6,0c-3.2-12.9-6.4-25.5-9.6-38.2c-0.2,0-0.3,0-0.5,0C180.6,64.9,177.5,77.5,174.3,90.4z M296.1,102.4
	c0.1-0.2,0.2-0.5,0.3-0.7c-4.9-3.2-9.8-6.3-14.8-9.6c-0.3,4.6-0.2,4.7,3.5,6.2c3,1.2,6,2.4,9.1,3.6
	C294.8,102,295.4,102.2,296.1,102.4z M199.2,61.2c-0.1,0.3-0.2,0.5-0.3,0.8c5.4,2.4,10.9,4.8,16.5,7.2c-0.4-3.3-1.4-5.3-4.8-5.6
	c-3.1-0.3-6.1-1.3-9.2-2C200.8,61.4,200,61.3,199.2,61.2z M281.6,99.7c-0.5,4-0.5,4,2.4,5.7c1.7,1,3.3,2,5,3
	c0.5,0.3,1.1,0.5,1.7,0.7c0.1-0.2,0.3-0.4,0.4-0.6C288,105.7,284.9,102.8,281.6,99.7z M203.2,53.6c-0.1,0.2-0.2,0.5-0.3,0.7
	c3.4,2.2,6.9,4.5,10.4,6.8c0.6-3.3,0.6-3.5-2.1-4.5c-1.9-0.7-3.7-1.5-5.5-2.2C204.9,54.1,204,53.9,203.2,53.6z M208.7,46.6
	c-0.2,0.3-0.4,0.5-0.6,0.8c1.8,1.7,3.6,3.4,5.9,5.5c0-1.4,0.3-2.6-0.1-2.9C212.3,48.7,210.5,47.7,208.7,46.6z M283.9,115.3
	c0.2-0.2,0.5-0.5,0.7-0.7c-1.5-1.9-2.9-3.9-4.7-6.3c-0.3,1.3-0.8,2.4-0.5,2.8C280.7,112.6,282.4,113.9,283.9,115.3z"/>
</svg>
